﻿
DisplayName "Sealed Chamber"



EVENT   1
 PAGE   1
  281(0)
  250(bytes(0x04,0x08,0x6f,0x3a,0x0c,0x52,0x50,0x47,0x3a,0x3a,0x53,0x45,0x08,0x3a,0x0a,0x40,0x6e,0x61,0x6d,0x65,0x49,0x22,0x09,0x4d,0x6f,0x76,0x65,0x06,0x3a,0x06,0x45,0x54,0x3a,0x0b,0x40,0x70,0x69,0x74,0x63,0x68,0x69,0x69,0x3a,0x0c,0x40,0x76,0x6f,0x6c,0x75,0x6d,0x65,0x69,0x55))
  TeleportPlayer(0,459,20,6,2,0)
  0()



EVENT   2
 PAGE   1
  281(0)
  250(bytes(0x04,0x08,0x6f,0x3a,0x0c,0x52,0x50,0x47,0x3a,0x3a,0x53,0x45,0x08,0x3a,0x0a,0x40,0x6e,0x61,0x6d,0x65,0x49,0x22,0x09,0x4d,0x6f,0x76,0x65,0x06,0x3a,0x06,0x45,0x54,0x3a,0x0b,0x40,0x70,0x69,0x74,0x63,0x68,0x69,0x69,0x3a,0x0c,0x40,0x76,0x6f,0x6c,0x75,0x6d,0x65,0x69,0x55))
  TeleportPlayer(0,459,20,6,2,0)
  0()

EVENT   3
 PAGE   1
  281(0)
  250(bytes(0x04,0x08,0x6f,0x3a,0x0c,0x52,0x50,0x47,0x3a,0x3a,0x53,0x45,0x08,0x3a,0x0a,0x40,0x6e,0x61,0x6d,0x65,0x49,0x22,0x09,0x4d,0x6f,0x76,0x65,0x06,0x3a,0x06,0x45,0x54,0x3a,0x0b,0x40,0x70,0x69,0x74,0x63,0x68,0x69,0x69,0x3a,0x0c,0x40,0x76,0x6f,0x6c,0x75,0x6d,0x65,0x69,0x55))
  TeleportPlayer(0,459,20,6,2,0)
  0()



EVENT   4
 PAGE   1
  250(bytes(0x04,0x08,0x6f,0x3a,0x0c,0x52,0x50,0x47,0x3a,0x3a,0x53,0x45,0x08,0x3a,0x0a,0x40,0x6e,0x61,0x6d,0x65,0x49,0x22,0x0a,0x43,0x68,0x65,0x73,0x74,0x06,0x3a,0x06,0x45,0x54,0x3a,0x0b,0x40,0x70,0x69,0x74,0x63,0x68,0x69,0x69,0x3a,0x0c,0x40,0x76,0x6f,0x6c,0x75,0x6d,0x65,0x69,0x55))
  205(0,bytes(0x04,0x08,0x6f,0x3a,0x13,0x52,0x50,0x47,0x3a,0x3a,0x4d,0x6f,0x76,0x65,0x52,0x6f,0x75,0x74,0x65,0x09,0x3a,0x0c,0x40,0x72,0x65,0x70,0x65,0x61,0x74,0x46,0x3a,0x0f,0x40,0x73,0x6b,0x69,0x70,0x70,0x61,0x62,0x6c,0x65,0x46,0x3a,0x0a,0x40,0x77,0x61,0x69,0x74,0x54,0x3a,0x0a,0x40,0x6c,0x69,0x73,0x74,0x5b,0x0b,0x6f,0x3a,0x15,0x52,0x50,0x47,0x3a,0x3a,0x4d,0x6f,0x76,0x65,0x43,0x6f,0x6d,0x6d,0x61,0x6e,0x64,0x07,0x3a,0x0a,0x40,0x63,0x6f,0x64,0x65,0x69,0x29,0x3a,0x10,0x40,0x70,0x61,0x72,0x61,0x6d,0x65,0x74,0x65,0x72,0x73,0x5b,0x00,0x6f,0x3b,0x0a,0x07,0x3b,0x0b,0x69,0x16,0x3b,0x0c,0x5b,0x00,0x6f,0x3b,0x0a,0x07,0x3b,0x0b,0x69,0x14,0x3b,0x0c,0x5b,0x06,0x69,0x08,0x6f,0x3b,0x0a,0x07,0x3b,0x0b,0x69,0x17,0x3b,0x0c,0x5b,0x00,0x6f,0x3b,0x0a,0x07,0x3b,0x0b,0x69,0x14,0x3b,0x0c,0x5b,0x06,0x69,0x08,0x6f,0x3b,0x0a,0x07,0x3b,0x0b,0x69,0x00,0x3b,0x0c,0x5b,0x00))
  ChangeSelfSwitch("A",0)
  ChangeInventoryWeapon(46,0,0,1)
  If(0,6,0)
   ShowMessageFace("sonia_fc2",2,0,2,1)
   ShowMessage("\\n<Sonya>This isn't a divine weapon, is it...?")
   0()
  EndIf()
  0()
 PAGE   2
  // condition: self-switch A is ON
  0()



EVENT   5
 PAGE   1
  250(bytes(0x04,0x08,0x6f,0x3a,0x0c,0x52,0x50,0x47,0x3a,0x3a,0x53,0x45,0x08,0x3a,0x0a,0x40,0x6e,0x61,0x6d,0x65,0x49,0x22,0x0a,0x43,0x68,0x65,0x73,0x74,0x06,0x3a,0x06,0x45,0x54,0x3a,0x0b,0x40,0x70,0x69,0x74,0x63,0x68,0x69,0x69,0x3a,0x0c,0x40,0x76,0x6f,0x6c,0x75,0x6d,0x65,0x69,0x55))
  205(0,bytes(0x04,0x08,0x6f,0x3a,0x13,0x52,0x50,0x47,0x3a,0x3a,0x4d,0x6f,0x76,0x65,0x52,0x6f,0x75,0x74,0x65,0x09,0x3a,0x0c,0x40,0x72,0x65,0x70,0x65,0x61,0x74,0x46,0x3a,0x0f,0x40,0x73,0x6b,0x69,0x70,0x70,0x61,0x62,0x6c,0x65,0x46,0x3a,0x0a,0x40,0x77,0x61,0x69,0x74,0x54,0x3a,0x0a,0x40,0x6c,0x69,0x73,0x74,0x5b,0x0b,0x6f,0x3a,0x15,0x52,0x50,0x47,0x3a,0x3a,0x4d,0x6f,0x76,0x65,0x43,0x6f,0x6d,0x6d,0x61,0x6e,0x64,0x07,0x3a,0x0a,0x40,0x63,0x6f,0x64,0x65,0x69,0x29,0x3a,0x10,0x40,0x70,0x61,0x72,0x61,0x6d,0x65,0x74,0x65,0x72,0x73,0x5b,0x00,0x6f,0x3b,0x0a,0x07,0x3b,0x0b,0x69,0x16,0x3b,0x0c,0x5b,0x00,0x6f,0x3b,0x0a,0x07,0x3b,0x0b,0x69,0x14,0x3b,0x0c,0x5b,0x06,0x69,0x08,0x6f,0x3b,0x0a,0x07,0x3b,0x0b,0x69,0x17,0x3b,0x0c,0x5b,0x00,0x6f,0x3b,0x0a,0x07,0x3b,0x0b,0x69,0x14,0x3b,0x0c,0x5b,0x06,0x69,0x08,0x6f,0x3b,0x0a,0x07,0x3b,0x0b,0x69,0x00,0x3b,0x0c,0x5b,0x00))
  ChangeSelfSwitch("A",0)
  125(0,0,37)
  ShowMessageFace("",0,0,2,1)
  ShowMessage("37\\G obtained!")
  0()
 PAGE   2
  // condition: self-switch A is ON
  0()



EVENT   6
 PAGE   1
  250(bytes(0x04,0x08,0x6f,0x3a,0x0c,0x52,0x50,0x47,0x3a,0x3a,0x53,0x45,0x08,0x3a,0x0a,0x40,0x6e,0x61,0x6d,0x65,0x49,0x22,0x0a,0x43,0x68,0x65,0x73,0x74,0x06,0x3a,0x06,0x45,0x54,0x3a,0x0b,0x40,0x70,0x69,0x74,0x63,0x68,0x69,0x69,0x3a,0x0c,0x40,0x76,0x6f,0x6c,0x75,0x6d,0x65,0x69,0x55))
  205(0,bytes(0x04,0x08,0x6f,0x3a,0x13,0x52,0x50,0x47,0x3a,0x3a,0x4d,0x6f,0x76,0x65,0x52,0x6f,0x75,0x74,0x65,0x09,0x3a,0x0c,0x40,0x72,0x65,0x70,0x65,0x61,0x74,0x46,0x3a,0x0f,0x40,0x73,0x6b,0x69,0x70,0x70,0x61,0x62,0x6c,0x65,0x46,0x3a,0x0a,0x40,0x77,0x61,0x69,0x74,0x54,0x3a,0x0a,0x40,0x6c,0x69,0x73,0x74,0x5b,0x0b,0x6f,0x3a,0x15,0x52,0x50,0x47,0x3a,0x3a,0x4d,0x6f,0x76,0x65,0x43,0x6f,0x6d,0x6d,0x61,0x6e,0x64,0x07,0x3a,0x0a,0x40,0x63,0x6f,0x64,0x65,0x69,0x29,0x3a,0x10,0x40,0x70,0x61,0x72,0x61,0x6d,0x65,0x74,0x65,0x72,0x73,0x5b,0x00,0x6f,0x3b,0x0a,0x07,0x3b,0x0b,0x69,0x16,0x3b,0x0c,0x5b,0x00,0x6f,0x3b,0x0a,0x07,0x3b,0x0b,0x69,0x14,0x3b,0x0c,0x5b,0x06,0x69,0x08,0x6f,0x3b,0x0a,0x07,0x3b,0x0b,0x69,0x17,0x3b,0x0c,0x5b,0x00,0x6f,0x3b,0x0a,0x07,0x3b,0x0b,0x69,0x14,0x3b,0x0c,0x5b,0x06,0x69,0x08,0x6f,0x3b,0x0a,0x07,0x3b,0x0b,0x69,0x00,0x3b,0x0c,0x5b,0x00))
  ChangeSelfSwitch("A",0)
  ChangeInventory_Item(1,0,0,1)
  0()
 PAGE   2
  // condition: self-switch A is ON
  0()



EVENT   7
 PAGE   1
  If(12,"unlock_level < 1")
   ShowMessageFace("",0,0,2,1)
   ShowMessage("The chest is locked.")
   EndEventProcessing()
   0()
  EndIf()
  250(bytes(0x04,0x08,0x6f,0x3a,0x0c,0x52,0x50,0x47,0x3a,0x3a,0x53,0x45,0x08,0x3a,0x0a,0x40,0x6e,0x61,0x6d,0x65,0x49,0x22,0x0a,0x43,0x68,0x65,0x73,0x74,0x06,0x3a,0x06,0x45,0x54,0x3a,0x0b,0x40,0x70,0x69,0x74,0x63,0x68,0x69,0x69,0x3a,0x0c,0x40,0x76,0x6f,0x6c,0x75,0x6d,0x65,0x69,0x55))
  205(0,bytes(0x04,0x08,0x6f,0x3a,0x13,0x52,0x50,0x47,0x3a,0x3a,0x4d,0x6f,0x76,0x65,0x52,0x6f,0x75,0x74,0x65,0x09,0x3a,0x0c,0x40,0x72,0x65,0x70,0x65,0x61,0x74,0x46,0x3a,0x0f,0x40,0x73,0x6b,0x69,0x70,0x70,0x61,0x62,0x6c,0x65,0x46,0x3a,0x0a,0x40,0x77,0x61,0x69,0x74,0x54,0x3a,0x0a,0x40,0x6c,0x69,0x73,0x74,0x5b,0x0b,0x6f,0x3a,0x15,0x52,0x50,0x47,0x3a,0x3a,0x4d,0x6f,0x76,0x65,0x43,0x6f,0x6d,0x6d,0x61,0x6e,0x64,0x07,0x3a,0x0a,0x40,0x63,0x6f,0x64,0x65,0x69,0x29,0x3a,0x10,0x40,0x70,0x61,0x72,0x61,0x6d,0x65,0x74,0x65,0x72,0x73,0x5b,0x00,0x6f,0x3b,0x0a,0x07,0x3b,0x0b,0x69,0x16,0x3b,0x0c,0x5b,0x00,0x6f,0x3b,0x0a,0x07,0x3b,0x0b,0x69,0x14,0x3b,0x0c,0x5b,0x06,0x69,0x08,0x6f,0x3b,0x0a,0x07,0x3b,0x0b,0x69,0x17,0x3b,0x0c,0x5b,0x00,0x6f,0x3b,0x0a,0x07,0x3b,0x0b,0x69,0x14,0x3b,0x0c,0x5b,0x06,0x69,0x08,0x6f,0x3b,0x0a,0x07,0x3b,0x0b,0x69,0x00,0x3b,0x0c,0x5b,0x00))
  ChangeSelfSwitch("A",0)
  ChangeInventoryArmor(1309,0,0,1)
  0()
 PAGE   2
  // condition: self-switch A is ON
  0()



EVENT   8
 PAGE   1
  If(12,"unlock_level < 2")
   ShowMessageFace("",0,0,2,1)
   ShowMessage("The chest is locked.")
   EndEventProcessing()
   0()
  EndIf()
  250(bytes(0x04,0x08,0x6f,0x3a,0x0c,0x52,0x50,0x47,0x3a,0x3a,0x53,0x45,0x08,0x3a,0x0a,0x40,0x6e,0x61,0x6d,0x65,0x49,0x22,0x0a,0x43,0x68,0x65,0x73,0x74,0x06,0x3a,0x06,0x45,0x54,0x3a,0x0b,0x40,0x70,0x69,0x74,0x63,0x68,0x69,0x69,0x3a,0x0c,0x40,0x76,0x6f,0x6c,0x75,0x6d,0x65,0x69,0x55))
  205(0,bytes(0x04,0x08,0x6f,0x3a,0x13,0x52,0x50,0x47,0x3a,0x3a,0x4d,0x6f,0x76,0x65,0x52,0x6f,0x75,0x74,0x65,0x09,0x3a,0x0c,0x40,0x72,0x65,0x70,0x65,0x61,0x74,0x46,0x3a,0x0f,0x40,0x73,0x6b,0x69,0x70,0x70,0x61,0x62,0x6c,0x65,0x46,0x3a,0x0a,0x40,0x77,0x61,0x69,0x74,0x54,0x3a,0x0a,0x40,0x6c,0x69,0x73,0x74,0x5b,0x0b,0x6f,0x3a,0x15,0x52,0x50,0x47,0x3a,0x3a,0x4d,0x6f,0x76,0x65,0x43,0x6f,0x6d,0x6d,0x61,0x6e,0x64,0x07,0x3a,0x0a,0x40,0x63,0x6f,0x64,0x65,0x69,0x29,0x3a,0x10,0x40,0x70,0x61,0x72,0x61,0x6d,0x65,0x74,0x65,0x72,0x73,0x5b,0x00,0x6f,0x3b,0x0a,0x07,0x3b,0x0b,0x69,0x16,0x3b,0x0c,0x5b,0x00,0x6f,0x3b,0x0a,0x07,0x3b,0x0b,0x69,0x14,0x3b,0x0c,0x5b,0x06,0x69,0x08,0x6f,0x3b,0x0a,0x07,0x3b,0x0b,0x69,0x17,0x3b,0x0c,0x5b,0x00,0x6f,0x3b,0x0a,0x07,0x3b,0x0b,0x69,0x14,0x3b,0x0c,0x5b,0x06,0x69,0x08,0x6f,0x3b,0x0a,0x07,0x3b,0x0b,0x69,0x00,0x3b,0x0c,0x5b,0x00))
  ChangeSelfSwitch("A",0)
  ChangeInventoryWeapon(152,0,0,1,false)
  0()
 PAGE   2
  // condition: self-switch A is ON
  0()



EVENT   9
 PAGE   1
  If(12,"unlock_level < 3")
   ShowMessageFace("",0,0,2,1)
   ShowMessage("The chest is locked.")
   EndEventProcessing()
   0()
  EndIf()
  250(bytes(0x04,0x08,0x6f,0x3a,0x0c,0x52,0x50,0x47,0x3a,0x3a,0x53,0x45,0x08,0x3a,0x0a,0x40,0x6e,0x61,0x6d,0x65,0x49,0x22,0x0a,0x43,0x68,0x65,0x73,0x74,0x06,0x3a,0x06,0x45,0x54,0x3a,0x0b,0x40,0x70,0x69,0x74,0x63,0x68,0x69,0x69,0x3a,0x0c,0x40,0x76,0x6f,0x6c,0x75,0x6d,0x65,0x69,0x55))
  205(0,bytes(0x04,0x08,0x6f,0x3a,0x13,0x52,0x50,0x47,0x3a,0x3a,0x4d,0x6f,0x76,0x65,0x52,0x6f,0x75,0x74,0x65,0x09,0x3a,0x0c,0x40,0x72,0x65,0x70,0x65,0x61,0x74,0x46,0x3a,0x0f,0x40,0x73,0x6b,0x69,0x70,0x70,0x61,0x62,0x6c,0x65,0x46,0x3a,0x0a,0x40,0x77,0x61,0x69,0x74,0x54,0x3a,0x0a,0x40,0x6c,0x69,0x73,0x74,0x5b,0x0b,0x6f,0x3a,0x15,0x52,0x50,0x47,0x3a,0x3a,0x4d,0x6f,0x76,0x65,0x43,0x6f,0x6d,0x6d,0x61,0x6e,0x64,0x07,0x3a,0x0a,0x40,0x63,0x6f,0x64,0x65,0x69,0x29,0x3a,0x10,0x40,0x70,0x61,0x72,0x61,0x6d,0x65,0x74,0x65,0x72,0x73,0x5b,0x00,0x6f,0x3b,0x0a,0x07,0x3b,0x0b,0x69,0x16,0x3b,0x0c,0x5b,0x00,0x6f,0x3b,0x0a,0x07,0x3b,0x0b,0x69,0x14,0x3b,0x0c,0x5b,0x06,0x69,0x08,0x6f,0x3b,0x0a,0x07,0x3b,0x0b,0x69,0x17,0x3b,0x0c,0x5b,0x00,0x6f,0x3b,0x0a,0x07,0x3b,0x0b,0x69,0x14,0x3b,0x0c,0x5b,0x06,0x69,0x08,0x6f,0x3b,0x0a,0x07,0x3b,0x0b,0x69,0x00,0x3b,0x0c,0x5b,0x00))
  ChangeSelfSwitch("A",0)
  ChangeInventoryArmor(1643,0,0,1)
  0()
 PAGE   2
  // condition: self-switch A is ON
  0()



EVENT   10
 PAGE   1
  ShowMessageFace("",0,0,2,1)
  ShowMessage("[Piercing Moon Spear, dedicated for the quick]")
  ShowMessageFace("",0,0,2,2)
  ShowMessage("But there's nothing on the pedestal...")
  If(0,6,0)
   If(2,"A",1)
    ChangeSelfSwitch("A",0)
    RunCommonEvent(309)
    0()
   EndIf()
   0()
  EndIf()
  0()



EVENT   11
 PAGE   1
  ShowMessageFace("",0,0,2,1)
  ShowMessage("[Flickering Dust Dagger, dedicated for the skillful]")
  ShowMessageFace("",0,0,2,2)
  ShowMessage("But there's nothing on the pedestal...")
  If(0,6,0)
   If(2,"A",1)
    ChangeSelfSwitch("A",0)
    RunCommonEvent(309)
    0()
   EndIf()
   0()
  EndIf()
  0()



EVENT   12
 PAGE   1
  ShowMessageFace("",0,0,2,1)
  ShowMessage("[Tremor Sword, dedicated for the valiant]")
  ShowMessageFace("",0,0,2,2)
  ShowMessage("But there's nothing on the pedestal...")
  If(0,6,0)
   If(2,"A",1)
    ChangeSelfSwitch("A",0)
    RunCommonEvent(309)
    0()
   EndIf()
   0()
  EndIf()
  0()



EVENT   13
 PAGE   1
  ShowMessageFace("",0,0,2,1)
  ShowMessage("[Flowing Sky Strongsword, dedicated for the fierce]")
  ShowMessageFace("",0,0,2,2)
  ShowMessage("But there's nothing on the pedestal...")
  If(0,6,0)
   If(2,"A",1)
    ChangeSelfSwitch("A",0)
    RunCommonEvent(309)
    0()
   EndIf()
   0()
  EndIf()
  0()



EVENT   14
 PAGE   1
  ShowMessageFace("",0,0,2,1)
  ShowMessage("[Disaster Sentence Great Sword, dedicated for the intense]")
  ShowMessageFace("",0,0,2,2)
  ShowMessage("But there's nothing on the pedestal...")
  If(0,6,0)
   If(2,"A",1)
    ChangeSelfSwitch("A",0)
    RunCommonEvent(309)
    0()
   EndIf()
   0()
  EndIf()
  0()



EVENT   15
 PAGE   1
  ShowMessageFace("",0,0,2,1)
  ShowMessage("[Crimson Roar Rapier, dedicated for the honorable]")
  ShowMessageFace("",0,0,2,2)
  ShowMessage("But there's nothing on the pedestal...")
  If(0,6,0)
   If(2,"A",1)
    ChangeSelfSwitch("A",0)
    RunCommonEvent(309)
    0()
   EndIf()
   0()
  EndIf()
  0()



EVENT   16
 PAGE   1
  ShowMessageFace("",0,0,2,1)
  ShowMessage("[Four Ruins Katana, dedicated for the serene]")
  ShowMessageFace("",0,0,2,2)
  ShowMessage("But there's nothing on the pedestal...")
  If(0,6,0)
   If(2,"A",1)
    ChangeSelfSwitch("A",0)
    RunCommonEvent(309)
    0()
   EndIf()
   0()
  EndIf()
  0()



EVENT   17
 PAGE   1
  ShowMessageFace("",0,0,2,1)
  ShowMessage("[Soul Revival Blade, dedicated for the concealed]")
  ShowMessageFace("",0,0,2,2)
  ShowMessage("But there's nothing on the pedestal...")
  If(0,6,0)
   If(2,"A",1)
    ChangeSelfSwitch("A",0)
    RunCommonEvent(309)
    0()
   EndIf()
   0()
  EndIf()
  0()



EVENT   18
 PAGE   1
  ShowMessageFace("",0,0,2,1)
  ShowMessage("[Thunder Retribution Fist, dedicated for the passionate]")
  ShowMessageFace("",0,0,2,2)
  ShowMessage("But there's nothing on the pedestal...")
  If(0,6,0)
   If(2,"A",1)
    ChangeSelfSwitch("A",0)
    RunCommonEvent(309)
    0()
   EndIf()
   0()
  EndIf()
  0()



EVENT   19
 PAGE   1
  ShowMessageFace("",0,0,2,1)
  ShowMessage("[Foolish Beast's Fang, dedicated for the wild]")
  ShowMessageFace("",0,0,2,2)
  ShowMessage("But there's nothing on the pedestal...")
  If(0,6,0)
   If(2,"A",1)
    ChangeSelfSwitch("A",0)
    RunCommonEvent(309)
    0()
   EndIf()
   0()
  EndIf()
  0()



EVENT   20
 PAGE   1
  ShowMessageFace("",0,0,2,1)
  ShowMessage("[Power Wave Axe, dedicated for the proud]")
  ShowMessageFace("",0,0,2,2)
  ShowMessage("But there's nothing on the pedestal...")
  If(0,6,0)
   If(2,"A",1)
    ChangeSelfSwitch("A",0)
    RunCommonEvent(309)
    0()
   EndIf()
   0()
  EndIf()
  0()



EVENT   21
 PAGE   1
  ShowMessageFace("",0,0,2,1)
  ShowMessage("[Godly Club, dedicated for the mighty]")
  ShowMessageFace("",0,0,2,2)
  ShowMessage("But there's nothing on the pedestal...")
  If(0,6,0)
   If(2,"A",1)
    ChangeSelfSwitch("A",0)
    RunCommonEvent(309)
    0()
   EndIf()
   0()
  EndIf()
  0()



EVENT   22
 PAGE   1
  ShowMessageFace("",0,0,2,1)
  ShowMessage("[Star Rhyme Staff, dedicated for the pure]")
  ShowMessageFace("",0,0,2,2)
  ShowMessage("But there's nothing on the pedestal...")
  If(0,6,0)
   If(2,"A",1)
    ChangeSelfSwitch("A",0)
    RunCommonEvent(309)
    0()
   EndIf()
   0()
  EndIf()
  0()



EVENT   23
 PAGE   1
  ShowMessageFace("",0,0,2,1)
  ShowMessage("[Ring World's Magic Staff, dedicated for the enlightened]")
  ShowMessageFace("",0,0,2,2)
  ShowMessage("But there's nothing on the pedestal...")
  If(0,6,0)
   If(2,"A",1)
    ChangeSelfSwitch("A",0)
    RunCommonEvent(309)
    0()
   EndIf()
   0()
  EndIf()
  0()



EVENT   24
 PAGE   1
  ShowMessageFace("",0,0,2,1)
  ShowMessage("[Dark Thunder Scythe, dedicated for the sharp]")
  ShowMessageFace("",0,0,2,2)
  ShowMessage("But there's nothing on the pedestal...")
  If(0,6,0)
   If(2,"A",1)
    ChangeSelfSwitch("A",0)
    RunCommonEvent(309)
    0()
   EndIf()
   0()
  EndIf()
  0()



EVENT   25
 PAGE   1
  ShowMessageFace("",0,0,2,1)
  ShowMessage("[High Lotus Bow, dedicated for the righteous]")
  ShowMessageFace("",0,0,2,2)
  ShowMessage("But there's nothing on the pedestal...")
  If(0,6,0)
   If(2,"A",1)
    ChangeSelfSwitch("A",0)
    RunCommonEvent(309)
    0()
   EndIf()
   0()
  EndIf()
  0()



EVENT   26
 PAGE   1
  ShowMessageFace("",0,0,2,1)
  ShowMessage("[Gun of Soul Howl, dedicated for the firm]")
  ShowMessageFace("",0,0,2,2)
  ShowMessage("But there's nothing on the pedestal...")
  If(0,6,0)
   If(2,"A",1)
    ChangeSelfSwitch("A",0)
    RunCommonEvent(309)
    0()
   EndIf()
   0()
  EndIf()
  0()



EVENT   27
 PAGE   1
  ShowMessageFace("",0,0,2,1)
  ShowMessage("[Whip of the Immortal, dedicated for the noble]")
  ShowMessageFace("",0,0,2,2)
  ShowMessage("But there's nothing on the pedestal...")
  If(0,6,0)
   If(2,"A",1)
    ChangeSelfSwitch("A",0)
    RunCommonEvent(309)
    0()
   EndIf()
   0()
  EndIf()
  0()



EVENT   28
 PAGE   1
  ShowMessageFace("",0,0,2,1)
  ShowMessage("[Soaring Bird's Throwing, dedicated for the inquisitive]")
  ShowMessageFace("",0,0,2,2)
  ShowMessage("But there's nothing on the pedestal...")
  If(0,6,0)
   If(2,"A",1)
    ChangeSelfSwitch("A",0)
    RunCommonEvent(309)
    0()
   EndIf()
   0()
  EndIf()
  0()



EVENT   29
 PAGE   1
  ShowMessageFace("",0,0,2,1)
  ShowMessage("[Chirping Fang, dedicated for the beautiful]")
  ShowMessageFace("",0,0,2,2)
  ShowMessage("But there's nothing on the pedestal...")
  If(0,6,0)
   If(2,"A",1)
    ChangeSelfSwitch("A",0)
    RunCommonEvent(309)
    0()
   EndIf()
   0()
  EndIf()
  0()


