


EVENT   1
 PAGE   1
  0()



EVENT   2
 PAGE   1
  0()



EVENT   3
 PAGE   1
  250(bytes(0x04,0x08,0x6f,0x3a,0x0c,0x52,0x50,0x47,0x3a,0x3a,0x53,0x45,0x08,0x3a,0x0a,0x40,0x6e,0x61,0x6d,0x65,0x49,0x22,0x09,0x4d,0x6f,0x76,0x65,0x06,0x3a,0x06,0x45,0x54,0x3a,0x0b,0x40,0x70,0x69,0x74,0x63,0x68,0x69,0x69,0x3a,0x0c,0x40,0x76,0x6f,0x6c,0x75,0x6d,0x65,0x69,0x55))
  TeleportPlayer(0,484,13,31,0,0)
  0()



EVENT   4
 PAGE   1
  250(bytes(0x04,0x08,0x6f,0x3a,0x0c,0x52,0x50,0x47,0x3a,0x3a,0x53,0x45,0x08,0x3a,0x0a,0x40,0x6e,0x61,0x6d,0x65,0x49,0x22,0x09,0x4d,0x6f,0x76,0x65,0x06,0x3a,0x06,0x45,0x54,0x3a,0x0b,0x40,0x70,0x69,0x74,0x63,0x68,0x69,0x69,0x3a,0x0c,0x40,0x76,0x6f,0x6c,0x75,0x6d,0x65,0x69,0x55))
  TeleportPlayer(0,484,13,31,0,0)
  0()



EVENT   5
 PAGE   1
  250(bytes(0x04,0x08,0x6f,0x3a,0x0c,0x52,0x50,0x47,0x3a,0x3a,0x53,0x45,0x08,0x3a,0x0a,0x40,0x6e,0x61,0x6d,0x65,0x49,0x22,0x09,0x4d,0x6f,0x76,0x65,0x06,0x3a,0x06,0x45,0x54,0x3a,0x0b,0x40,0x70,0x69,0x74,0x63,0x68,0x69,0x69,0x3a,0x0c,0x40,0x76,0x6f,0x6c,0x75,0x6d,0x65,0x69,0x55))
  TeleportPlayer(0,484,13,31,0,0)
  0()



EVENT   6
 PAGE   1
  250(bytes(0x04,0x08,0x6f,0x3a,0x0c,0x52,0x50,0x47,0x3a,0x3a,0x53,0x45,0x08,0x3a,0x0a,0x40,0x6e,0x61,0x6d,0x65,0x49,0x22,0x09,0x4d,0x6f,0x76,0x65,0x06,0x3a,0x06,0x45,0x54,0x3a,0x0b,0x40,0x70,0x69,0x74,0x63,0x68,0x69,0x69,0x3a,0x0c,0x40,0x76,0x6f,0x6c,0x75,0x6d,0x65,0x69,0x55))
  TeleportPlayer(0,484,13,31,0,0)
  0()



EVENT   7
 PAGE   1
  250(bytes(0x04,0x08,0x6f,0x3a,0x0c,0x52,0x50,0x47,0x3a,0x3a,0x53,0x45,0x08,0x3a,0x0a,0x40,0x6e,0x61,0x6d,0x65,0x49,0x22,0x09,0x4d,0x6f,0x76,0x65,0x06,0x3a,0x06,0x45,0x54,0x3a,0x0b,0x40,0x70,0x69,0x74,0x63,0x68,0x69,0x69,0x3a,0x0c,0x40,0x76,0x6f,0x6c,0x75,0x6d,0x65,0x69,0x55))
  TeleportPlayer(0,484,13,31,0,0)
  0()



EVENT   8
 PAGE   1
  250(bytes(0x04,0x08,0x6f,0x3a,0x0c,0x52,0x50,0x47,0x3a,0x3a,0x53,0x45,0x08,0x3a,0x0a,0x40,0x6e,0x61,0x6d,0x65,0x49,0x22,0x09,0x4d,0x6f,0x76,0x65,0x06,0x3a,0x06,0x45,0x54,0x3a,0x0b,0x40,0x70,0x69,0x74,0x63,0x68,0x69,0x69,0x3a,0x0c,0x40,0x76,0x6f,0x6c,0x75,0x6d,0x65,0x69,0x55))
  TeleportPlayer(0,484,54,31,0,0)
  0()



EVENT   9
 PAGE   1
  250(bytes(0x04,0x08,0x6f,0x3a,0x0c,0x52,0x50,0x47,0x3a,0x3a,0x53,0x45,0x08,0x3a,0x0a,0x40,0x6e,0x61,0x6d,0x65,0x49,0x22,0x09,0x4d,0x6f,0x76,0x65,0x06,0x3a,0x06,0x45,0x54,0x3a,0x0b,0x40,0x70,0x69,0x74,0x63,0x68,0x69,0x69,0x3a,0x0c,0x40,0x76,0x6f,0x6c,0x75,0x6d,0x65,0x69,0x55))
  TeleportPlayer(0,484,54,31,0,0)
  0()



EVENT   10
 PAGE   1
  250(bytes(0x04,0x08,0x6f,0x3a,0x0c,0x52,0x50,0x47,0x3a,0x3a,0x53,0x45,0x08,0x3a,0x0a,0x40,0x6e,0x61,0x6d,0x65,0x49,0x22,0x09,0x4d,0x6f,0x76,0x65,0x06,0x3a,0x06,0x45,0x54,0x3a,0x0b,0x40,0x70,0x69,0x74,0x63,0x68,0x69,0x69,0x3a,0x0c,0x40,0x76,0x6f,0x6c,0x75,0x6d,0x65,0x69,0x55))
  TeleportPlayer(0,484,54,31,0,0)
  0()



EVENT   11
 PAGE   1
  250(bytes(0x04,0x08,0x6f,0x3a,0x0c,0x52,0x50,0x47,0x3a,0x3a,0x53,0x45,0x08,0x3a,0x0a,0x40,0x6e,0x61,0x6d,0x65,0x49,0x22,0x09,0x4d,0x6f,0x76,0x65,0x06,0x3a,0x06,0x45,0x54,0x3a,0x0b,0x40,0x70,0x69,0x74,0x63,0x68,0x69,0x69,0x3a,0x0c,0x40,0x76,0x6f,0x6c,0x75,0x6d,0x65,0x69,0x55))
  TeleportPlayer(0,484,54,31,0,0)
  0()



EVENT   12
 PAGE   1
  250(bytes(0x04,0x08,0x6f,0x3a,0x0c,0x52,0x50,0x47,0x3a,0x3a,0x53,0x45,0x08,0x3a,0x0a,0x40,0x6e,0x61,0x6d,0x65,0x49,0x22,0x09,0x4d,0x6f,0x76,0x65,0x06,0x3a,0x06,0x45,0x54,0x3a,0x0b,0x40,0x70,0x69,0x74,0x63,0x68,0x69,0x69,0x3a,0x0c,0x40,0x76,0x6f,0x6c,0x75,0x6d,0x65,0x69,0x55))
  TeleportPlayer(0,484,54,31,0,0)
  0()



EVENT   13
 PAGE   1
  250(bytes(0x04,0x08,0x6f,0x3a,0x0c,0x52,0x50,0x47,0x3a,0x3a,0x53,0x45,0x08,0x3a,0x0a,0x40,0x6e,0x61,0x6d,0x65,0x49,0x22,0x09,0x4d,0x6f,0x76,0x65,0x06,0x3a,0x06,0x45,0x54,0x3a,0x0b,0x40,0x70,0x69,0x74,0x63,0x68,0x69,0x69,0x3a,0x0c,0x40,0x76,0x6f,0x6c,0x75,0x6d,0x65,0x69,0x55))
  TeleportPlayer(0,375,55,13,0,0)
  0()



EVENT   14
 PAGE   1
  250(bytes(0x04,0x08,0x6f,0x3a,0x0c,0x52,0x50,0x47,0x3a,0x3a,0x53,0x45,0x08,0x3a,0x0a,0x40,0x6e,0x61,0x6d,0x65,0x49,0x22,0x09,0x4d,0x6f,0x76,0x65,0x06,0x3a,0x06,0x45,0x54,0x3a,0x0b,0x40,0x70,0x69,0x74,0x63,0x68,0x69,0x69,0x3a,0x0c,0x40,0x76,0x6f,0x6c,0x75,0x6d,0x65,0x69,0x55))
  TeleportPlayer(0,375,22,13,0,0)
  0()



EVENT   15
 PAGE   1
  If(6,-1,2)
   250(bytes(0x04,0x08,0x6f,0x3a,0x0c,0x52,0x50,0x47,0x3a,0x3a,0x53,0x45,0x08,0x3a,0x0a,0x40,0x6e,0x61,0x6d,0x65,0x49,0x22,0x09,0x4d,0x6f,0x76,0x65,0x06,0x3a,0x06,0x45,0x54,0x3a,0x0b,0x40,0x70,0x69,0x74,0x63,0x68,0x69,0x69,0x3a,0x0c,0x40,0x76,0x6f,0x6c,0x75,0x6d,0x65,0x69,0x55))
   TeleportPlayer(0,375,56,49,0,0)
   0()
  EndIf()
  0()



EVENT   16
 PAGE   1
  If(6,-1,2)
   250(bytes(0x04,0x08,0x6f,0x3a,0x0c,0x52,0x50,0x47,0x3a,0x3a,0x53,0x45,0x08,0x3a,0x0a,0x40,0x6e,0x61,0x6d,0x65,0x49,0x22,0x09,0x4d,0x6f,0x76,0x65,0x06,0x3a,0x06,0x45,0x54,0x3a,0x0b,0x40,0x70,0x69,0x74,0x63,0x68,0x69,0x69,0x3a,0x0c,0x40,0x76,0x6f,0x6c,0x75,0x6d,0x65,0x69,0x55))
   TeleportPlayer(0,375,55,49,0,0)
   0()
  EndIf()
  0()



EVENT   17
 PAGE   1
  If(6,-1,2)
   250(bytes(0x04,0x08,0x6f,0x3a,0x0c,0x52,0x50,0x47,0x3a,0x3a,0x53,0x45,0x08,0x3a,0x0a,0x40,0x6e,0x61,0x6d,0x65,0x49,0x22,0x09,0x4d,0x6f,0x76,0x65,0x06,0x3a,0x06,0x45,0x54,0x3a,0x0b,0x40,0x70,0x69,0x74,0x63,0x68,0x69,0x69,0x3a,0x0c,0x40,0x76,0x6f,0x6c,0x75,0x6d,0x65,0x69,0x55))
   TeleportPlayer(0,375,22,49,0,0)
   0()
  EndIf()
  0()



EVENT   18
 PAGE   1
  If(6,-1,2)
   250(bytes(0x04,0x08,0x6f,0x3a,0x0c,0x52,0x50,0x47,0x3a,0x3a,0x53,0x45,0x08,0x3a,0x0a,0x40,0x6e,0x61,0x6d,0x65,0x49,0x22,0x09,0x4d,0x6f,0x76,0x65,0x06,0x3a,0x06,0x45,0x54,0x3a,0x0b,0x40,0x70,0x69,0x74,0x63,0x68,0x69,0x69,0x3a,0x0c,0x40,0x76,0x6f,0x6c,0x75,0x6d,0x65,0x69,0x55))
   TeleportPlayer(0,375,21,49,0,0)
   0()
  EndIf()
  0()



EVENT   19
 PAGE   1
  250(bytes(0x04,0x08,0x6f,0x3a,0x0c,0x52,0x50,0x47,0x3a,0x3a,0x53,0x45,0x08,0x3a,0x0a,0x40,0x6e,0x61,0x6d,0x65,0x49,0x22,0x09,0x4d,0x6f,0x76,0x65,0x06,0x3a,0x06,0x45,0x54,0x3a,0x0b,0x40,0x70,0x69,0x74,0x63,0x68,0x69,0x69,0x3a,0x0c,0x40,0x76,0x6f,0x6c,0x75,0x6d,0x65,0x69,0x55))
  TeleportPlayer(0,486,65,11,0,0)
  0()



EVENT   20
 PAGE   1
  250(bytes(0x04,0x08,0x6f,0x3a,0x0c,0x52,0x50,0x47,0x3a,0x3a,0x53,0x45,0x08,0x3a,0x0a,0x40,0x6e,0x61,0x6d,0x65,0x49,0x22,0x09,0x4d,0x6f,0x76,0x65,0x06,0x3a,0x06,0x45,0x54,0x3a,0x0b,0x40,0x70,0x69,0x74,0x63,0x68,0x69,0x69,0x3a,0x0c,0x40,0x76,0x6f,0x6c,0x75,0x6d,0x65,0x69,0x55))
  TeleportPlayer(0,486,24,11,0,0)
  0()



EVENT   21
 PAGE   1
  If(6,-1,2)
   250(bytes(0x04,0x08,0x6f,0x3a,0x0c,0x52,0x50,0x47,0x3a,0x3a,0x53,0x45,0x08,0x3a,0x0a,0x40,0x6e,0x61,0x6d,0x65,0x49,0x22,0x09,0x4d,0x6f,0x76,0x65,0x06,0x3a,0x06,0x45,0x54,0x3a,0x0b,0x40,0x70,0x69,0x74,0x63,0x68,0x69,0x69,0x3a,0x0c,0x40,0x76,0x6f,0x6c,0x75,0x6d,0x65,0x69,0x55))
   TeleportPlayer(0,486,24,48,0,0)
   0()
  EndIf()
  0()



EVENT   22
 PAGE   1
  If(6,-1,2)
   250(bytes(0x04,0x08,0x6f,0x3a,0x0c,0x52,0x50,0x47,0x3a,0x3a,0x53,0x45,0x08,0x3a,0x0a,0x40,0x6e,0x61,0x6d,0x65,0x49,0x22,0x09,0x4d,0x6f,0x76,0x65,0x06,0x3a,0x06,0x45,0x54,0x3a,0x0b,0x40,0x70,0x69,0x74,0x63,0x68,0x69,0x69,0x3a,0x0c,0x40,0x76,0x6f,0x6c,0x75,0x6d,0x65,0x69,0x55))
   TeleportPlayer(0,486,24,48,0,0)
   0()
  EndIf()
  0()



EVENT   23
 PAGE   1
  If(6,-1,2)
   250(bytes(0x04,0x08,0x6f,0x3a,0x0c,0x52,0x50,0x47,0x3a,0x3a,0x53,0x45,0x08,0x3a,0x0a,0x40,0x6e,0x61,0x6d,0x65,0x49,0x22,0x09,0x4d,0x6f,0x76,0x65,0x06,0x3a,0x06,0x45,0x54,0x3a,0x0b,0x40,0x70,0x69,0x74,0x63,0x68,0x69,0x69,0x3a,0x0c,0x40,0x76,0x6f,0x6c,0x75,0x6d,0x65,0x69,0x55))
   TeleportPlayer(0,486,65,48,0,0)
   0()
  EndIf()
  0()



EVENT   24
 PAGE   1
  If(6,-1,2)
   250(bytes(0x04,0x08,0x6f,0x3a,0x0c,0x52,0x50,0x47,0x3a,0x3a,0x53,0x45,0x08,0x3a,0x0a,0x40,0x6e,0x61,0x6d,0x65,0x49,0x22,0x09,0x4d,0x6f,0x76,0x65,0x06,0x3a,0x06,0x45,0x54,0x3a,0x0b,0x40,0x70,0x69,0x74,0x63,0x68,0x69,0x69,0x3a,0x0c,0x40,0x76,0x6f,0x6c,0x75,0x6d,0x65,0x69,0x55))
   TeleportPlayer(0,486,65,48,0,0)
   0()
  EndIf()
  0()



EVENT   25
 PAGE   1
  If(12,"$game_player.y >= 14 && $game_player.y <= 44 && $game_player.x >= 9 && $game_player.x <= 10")
   If(6,-1,6)
    282(112)
    JumpToLabel("2")
    0()
   EndIf()
   0()
  EndIf()
  If(12,"$game_player.y >= 14 && $game_player.y <= 44 && $game_player.x >= 8 && $game_player.x <= 9")
   If(6,-1,4)
    282(111)
    JumpToLabel("3")
    0()
   EndIf()
   0()
  EndIf()
  If(12,"$game_player.x >= 18 && $game_player.x <= 49 && $game_player.y >= 5 && $game_player.y <= 6")
   If(6,-1,8)
    282(111)
    JumpToLabel("3")
    0()
   EndIf()
   0()
  EndIf()
  If(12,"$game_player.x >= 18 && $game_player.x <= 49 && $game_player.y >= 6 && $game_player.y <= 7")
   If(6,-1,2)
    282(112)
    JumpToLabel("2")
    0()
   EndIf()
   0()
  EndIf()
  If(12,"$game_player.y >= 14 && $game_player.y <= 44 && $game_player.x >= 58 && $game_player.x <= 59")
   If(6,-1,6)
    282(111)
    JumpToLabel("3")
    0()
   EndIf()
   0()
  EndIf()
  If(12,"$game_player.y >= 14 && $game_player.y <= 44 && $game_player.x <= 58 && $game_player.x >= 57")
   If(6,-1,4)
    282(112)
    JumpToLabel("2")
    0()
   EndIf()
   0()
  EndIf()
  JumpToLabel("1")
  DefineLabel("2")
  TeleportEvent(33,0,10,45,0)
  TeleportEvent(61,0,57,45,0)
  JumpToLabel("1")
  DefineLabel("3")
  TeleportEvent(33,0,10,44,0)
  TeleportEvent(61,0,57,44,0)
  DefineLabel("1")
  Wait(1)
  0()



EVENT   26
 PAGE   1
  TeleportEvent(28,0,9,44,0)
  TeleportEvent(66,0,58,44,0)
  TeleportEvent(29,0,9,44,0)
  TeleportEvent(67,0,58,44,0)
  222()
  TemporaryRemoveEvent()
  0()



EVENT   27
 PAGE   1
  0()



EVENT   28
 PAGE   1
  0()



EVENT   29
 PAGE   1
  0()



EVENT   30
 PAGE   1
  0()



EVENT   31
 PAGE   1
  0()



EVENT   32
 PAGE   1
  0()



EVENT   33
 PAGE   1
  0()



EVENT   34
 PAGE   1
  TeleportEvent(18,0,16,50,0)
  TeleportEvent(17,0,17,50,0)
  TeleportEvent(16,0,50,50,0)
  TeleportEvent(15,0,51,50,0)
  282(111)
  TeleportEvent(33,0,10,44,0)
  TeleportEvent(61,0,57,44,0)
  0()



EVENT   35
 PAGE   1
  TeleportEvent(18,0,16,50,0)
  TeleportEvent(17,0,17,50,0)
  TeleportEvent(16,0,50,50,0)
  TeleportEvent(15,0,51,50,0)
  282(111)
  TeleportEvent(33,0,10,44,0)
  TeleportEvent(61,0,57,44,0)
  0()



EVENT   36
 PAGE   1
  TeleportEvent(18,0,16,50,0)
  TeleportEvent(17,0,17,50,0)
  TeleportEvent(16,0,50,50,0)
  TeleportEvent(15,0,51,50,0)
  282(111)
  TeleportEvent(33,0,10,44,0)
  TeleportEvent(61,0,57,44,0)
  0()



EVENT   37
 PAGE   1
  TeleportEvent(18,0,16,51,0)
  TeleportEvent(17,0,17,51,0)
  TeleportEvent(16,0,50,51,0)
  TeleportEvent(15,0,51,51,0)
  0()



EVENT   38
 PAGE   1
  TeleportEvent(18,0,16,51,0)
  TeleportEvent(17,0,17,51,0)
  TeleportEvent(16,0,50,51,0)
  TeleportEvent(15,0,51,51,0)
  0()



EVENT   39
 PAGE   1
  TeleportEvent(18,0,16,50,0)
  TeleportEvent(17,0,17,50,0)
  TeleportEvent(16,0,50,50,0)
  TeleportEvent(15,0,51,50,0)
  0()



EVENT   40
 PAGE   1
  TeleportEvent(18,0,16,51,0)
  TeleportEvent(17,0,17,51,0)
  TeleportEvent(16,0,50,51,0)
  TeleportEvent(15,0,51,51,0)
  0()



EVENT   41
 PAGE   1
  TeleportEvent(18,0,16,50,0)
  TeleportEvent(17,0,17,50,0)
  TeleportEvent(16,0,50,50,0)
  TeleportEvent(15,0,51,50,0)
  0()



EVENT   42
 PAGE   1
  TeleportEvent(18,0,16,50,0)
  TeleportEvent(17,0,17,50,0)
  TeleportEvent(16,0,50,50,0)
  TeleportEvent(15,0,51,50,0)
  0()



EVENT   43
 PAGE   1
  TeleportEvent(18,0,16,50,0)
  TeleportEvent(17,0,17,50,0)
  TeleportEvent(16,0,50,50,0)
  TeleportEvent(15,0,51,50,0)
  0()



EVENT   44
 PAGE   1
  0()



EVENT   45
 PAGE   1
  0()



EVENT   46
 PAGE   1
  0()



EVENT   47
 PAGE   1
  TeleportEvent(18,0,16,50,0)
  TeleportEvent(17,0,17,50,0)
  TeleportEvent(16,0,50,50,0)
  TeleportEvent(15,0,51,50,0)
  0()



EVENT   48
 PAGE   1
  TeleportEvent(18,0,16,50,0)
  TeleportEvent(17,0,17,50,0)
  TeleportEvent(16,0,50,50,0)
  TeleportEvent(15,0,51,50,0)
  0()



EVENT   49
 PAGE   1
  TeleportEvent(18,0,16,50,0)
  TeleportEvent(17,0,17,50,0)
  TeleportEvent(16,0,50,50,0)
  TeleportEvent(15,0,51,50,0)
  0()



EVENT   50
 PAGE   1
  TeleportEvent(18,0,16,50,0)
  TeleportEvent(17,0,17,50,0)
  TeleportEvent(16,0,50,50,0)
  TeleportEvent(15,0,51,50,0)
  0()



EVENT   51
 PAGE   1
  TeleportEvent(18,0,16,50,0)
  TeleportEvent(17,0,17,50,0)
  TeleportEvent(16,0,50,50,0)
  TeleportEvent(15,0,51,50,0)
  282(111)
  TeleportEvent(33,0,10,44,0)
  TeleportEvent(61,0,57,44,0)
  0()



EVENT   52
 PAGE   1
  TeleportEvent(18,0,16,50,0)
  TeleportEvent(17,0,17,50,0)
  TeleportEvent(16,0,50,50,0)
  TeleportEvent(15,0,51,50,0)
  282(111)
  TeleportEvent(33,0,10,44,0)
  TeleportEvent(61,0,57,44,0)
  0()



EVENT   53
 PAGE   1
  TeleportEvent(18,0,16,50,0)
  TeleportEvent(17,0,17,50,0)
  TeleportEvent(16,0,50,50,0)
  TeleportEvent(15,0,51,50,0)
  282(111)
  TeleportEvent(33,0,10,44,0)
  TeleportEvent(61,0,57,44,0)
  0()



EVENT   54
 PAGE   1
  TeleportEvent(18,0,16,51,0)
  TeleportEvent(17,0,17,51,0)
  TeleportEvent(16,0,50,51,0)
  TeleportEvent(15,0,51,51,0)
  0()



EVENT   55
 PAGE   1
  TeleportEvent(18,0,16,51,0)
  TeleportEvent(17,0,17,51,0)
  TeleportEvent(16,0,50,51,0)
  TeleportEvent(15,0,51,51,0)
  0()



EVENT   56
 PAGE   1
  TeleportEvent(18,0,16,50,0)
  TeleportEvent(17,0,17,50,0)
  TeleportEvent(16,0,50,50,0)
  TeleportEvent(15,0,51,50,0)
  0()



EVENT   57
 PAGE   1
  TeleportEvent(18,0,16,51,0)
  TeleportEvent(17,0,17,51,0)
  TeleportEvent(16,0,50,51,0)
  TeleportEvent(15,0,51,51,0)
  0()



EVENT   58
 PAGE   1
  TeleportEvent(18,0,16,50,0)
  TeleportEvent(17,0,17,50,0)
  TeleportEvent(16,0,50,50,0)
  TeleportEvent(15,0,51,50,0)
  0()



EVENT   59
 PAGE   1
  TeleportEvent(18,0,16,50,0)
  TeleportEvent(17,0,17,50,0)
  TeleportEvent(16,0,50,50,0)
  TeleportEvent(15,0,51,50,0)
  0()



EVENT   60
 PAGE   1
  TeleportEvent(18,0,16,50,0)
  TeleportEvent(17,0,17,50,0)
  TeleportEvent(16,0,50,50,0)
  TeleportEvent(15,0,51,50,0)
  0()



EVENT   61
 PAGE   1
  0()



EVENT   62
 PAGE   1
  0()



EVENT   63
 PAGE   1
  0()



EVENT   64
 PAGE   1
  0()



EVENT   65
 PAGE   1
  0()



EVENT   66
 PAGE   1
  0()



EVENT   67
 PAGE   1
  0()



EVENT   68
 PAGE   1
  TeleportEvent(18,0,16,50,0)
  TeleportEvent(17,0,17,50,0)
  TeleportEvent(16,0,50,50,0)
  TeleportEvent(15,0,51,50,0)
  0()



EVENT   69
 PAGE   1
  TeleportEvent(18,0,16,50,0)
  TeleportEvent(17,0,17,50,0)
  TeleportEvent(16,0,50,50,0)
  TeleportEvent(15,0,51,50,0)
  0()



EVENT   70
 PAGE   1
  TeleportEvent(18,0,16,50,0)
  TeleportEvent(17,0,17,50,0)
  TeleportEvent(16,0,50,50,0)
  TeleportEvent(15,0,51,50,0)
  0()



EVENT   71
 PAGE   1
  TeleportEvent(18,0,16,50,0)
  TeleportEvent(17,0,17,50,0)
  TeleportEvent(16,0,50,50,0)
  TeleportEvent(15,0,51,50,0)
  0()



EVENT   72
 PAGE   1
  0()



EVENT   73
 PAGE   1
  0()



EVENT   74
 PAGE   1
  0()



EVENT   75
 PAGE   1
  250(bytes(0x04,0x08,0x6f,0x3a,0x0c,0x52,0x50,0x47,0x3a,0x3a,0x53,0x45,0x08,0x3a,0x0a,0x40,0x6e,0x61,0x6d,0x65,0x49,0x22,0x09,0x4d,0x6f,0x76,0x65,0x06,0x3a,0x06,0x45,0x54,0x3a,0x0b,0x40,0x70,0x69,0x74,0x63,0x68,0x69,0x69,0x3a,0x0c,0x40,0x76,0x6f,0x6c,0x75,0x6d,0x65,0x69,0x55))
  TeleportPlayer(0,375,21,49,0,0)
  0()



EVENT   76
 PAGE   1
  250(bytes(0x04,0x08,0x6f,0x3a,0x0c,0x52,0x50,0x47,0x3a,0x3a,0x53,0x45,0x08,0x3a,0x0a,0x40,0x6e,0x61,0x6d,0x65,0x49,0x22,0x09,0x4d,0x6f,0x76,0x65,0x06,0x3a,0x06,0x45,0x54,0x3a,0x0b,0x40,0x70,0x69,0x74,0x63,0x68,0x69,0x69,0x3a,0x0c,0x40,0x76,0x6f,0x6c,0x75,0x6d,0x65,0x69,0x55))
  TeleportPlayer(0,375,22,49,0,0)
  0()



EVENT   77
 PAGE   1
  250(bytes(0x04,0x08,0x6f,0x3a,0x0c,0x52,0x50,0x47,0x3a,0x3a,0x53,0x45,0x08,0x3a,0x0a,0x40,0x6e,0x61,0x6d,0x65,0x49,0x22,0x09,0x4d,0x6f,0x76,0x65,0x06,0x3a,0x06,0x45,0x54,0x3a,0x0b,0x40,0x70,0x69,0x74,0x63,0x68,0x69,0x69,0x3a,0x0c,0x40,0x76,0x6f,0x6c,0x75,0x6d,0x65,0x69,0x55))
  TeleportPlayer(0,375,55,49,0,0)
  0()



EVENT   78
 PAGE   1
  250(bytes(0x04,0x08,0x6f,0x3a,0x0c,0x52,0x50,0x47,0x3a,0x3a,0x53,0x45,0x08,0x3a,0x0a,0x40,0x6e,0x61,0x6d,0x65,0x49,0x22,0x09,0x4d,0x6f,0x76,0x65,0x06,0x3a,0x06,0x45,0x54,0x3a,0x0b,0x40,0x70,0x69,0x74,0x63,0x68,0x69,0x69,0x3a,0x0c,0x40,0x76,0x6f,0x6c,0x75,0x6d,0x65,0x69,0x55))
  TeleportPlayer(0,375,56,49,0,0)
  0()



EVENT   79
 PAGE   1
  250(bytes(0x04,0x08,0x6f,0x3a,0x0c,0x52,0x50,0x47,0x3a,0x3a,0x53,0x45,0x08,0x3a,0x0a,0x40,0x6e,0x61,0x6d,0x65,0x49,0x22,0x09,0x4d,0x6f,0x76,0x65,0x06,0x3a,0x06,0x45,0x54,0x3a,0x0b,0x40,0x70,0x69,0x74,0x63,0x68,0x69,0x69,0x3a,0x0c,0x40,0x76,0x6f,0x6c,0x75,0x6d,0x65,0x69,0x55))
  TeleportPlayer(0,486,24,48,0,0)
  0()



EVENT   80
 PAGE   1
  250(bytes(0x04,0x08,0x6f,0x3a,0x0c,0x52,0x50,0x47,0x3a,0x3a,0x53,0x45,0x08,0x3a,0x0a,0x40,0x6e,0x61,0x6d,0x65,0x49,0x22,0x09,0x4d,0x6f,0x76,0x65,0x06,0x3a,0x06,0x45,0x54,0x3a,0x0b,0x40,0x70,0x69,0x74,0x63,0x68,0x69,0x69,0x3a,0x0c,0x40,0x76,0x6f,0x6c,0x75,0x6d,0x65,0x69,0x55))
  TeleportPlayer(0,486,24,48,0,0)
  0()



EVENT   81
 PAGE   1
  250(bytes(0x04,0x08,0x6f,0x3a,0x0c,0x52,0x50,0x47,0x3a,0x3a,0x53,0x45,0x08,0x3a,0x0a,0x40,0x6e,0x61,0x6d,0x65,0x49,0x22,0x09,0x4d,0x6f,0x76,0x65,0x06,0x3a,0x06,0x45,0x54,0x3a,0x0b,0x40,0x70,0x69,0x74,0x63,0x68,0x69,0x69,0x3a,0x0c,0x40,0x76,0x6f,0x6c,0x75,0x6d,0x65,0x69,0x55))
  TeleportPlayer(0,486,65,48,0,0)
  0()



EVENT   82
 PAGE   1
  250(bytes(0x04,0x08,0x6f,0x3a,0x0c,0x52,0x50,0x47,0x3a,0x3a,0x53,0x45,0x08,0x3a,0x0a,0x40,0x6e,0x61,0x6d,0x65,0x49,0x22,0x09,0x4d,0x6f,0x76,0x65,0x06,0x3a,0x06,0x45,0x54,0x3a,0x0b,0x40,0x70,0x69,0x74,0x63,0x68,0x69,0x69,0x3a,0x0c,0x40,0x76,0x6f,0x6c,0x75,0x6d,0x65,0x69,0x55))
  TeleportPlayer(0,486,65,48,0,0)
  0()



EVENT   83
 PAGE   1
  // condition: variable 1052 >= 3
  0()
 PAGE   2
  // condition: variable 1052 >= 4
  0()
 PAGE   3
  // condition: variable 1052 >= 5
  0()
 PAGE   4
  // condition: switch 31 is ON
  // condition: variable 1052 >= 5
  0()
 PAGE   5
  // condition: variable 1052 >= 6
  0()



EVENT   84
 PAGE   1
  // condition: switch 32 is ON
  0()



EVENT   85
 PAGE   1
  // condition: switch 33 is ON
  0()



EVENT   86
 PAGE   1
  // condition: variable 1052 >= 5
  Wait(60)
  ShowMessageFace("",0,0,2,1)
  ShowMessage("\\n<Referee>It's the young hero who's beaten the favorites one after another... Welcome Team Luka!")
  ShowMessageFace("ruka_fc1",0,0,2,2)
  ShowMessage("\\n<ルカ>The cheering is amazingly loud for the finals. Is our opponent not even here yet, though?")
  ShowMessageFace("",0,0,2,3)
  ShowMessage("\\n<Referee>And going up against them--")
  Wait(60)
  250(bytes(0x04,0x08,0x6f,0x3a,0x0c,0x52,0x50,0x47,0x3a,0x3a,0x53,0x45,0x08,0x3a,0x0a,0x40,0x6e,0x61,0x6d,0x65,0x49,0x22,0x0e,0x6d,0x6f,0x6e,0x5f,0x77,0x69,0x6e,0x64,0x31,0x06,0x3a,0x06,0x45,0x54,0x3a,0x0b,0x40,0x70,0x69,0x74,0x63,0x68,0x69,0x69,0x3a,0x0c,0x40,0x76,0x6f,0x6c,0x75,0x6d,0x65,0x69,0x69))
  ChangeSwitch(31,31,0)
  241(bytes(0x04,0x08,0x6f,0x3a,0x0d,0x52,0x50,0x47,0x3a,0x3a,0x42,0x47,0x4d,0x08,0x3a,0x0a,0x40,0x6e,0x61,0x6d,0x65,0x49,0x22,0x0c,0x62,0x6f,0x73,0x73,0x30,0x2d,0x32,0x06,0x3a,0x06,0x45,0x54,0x3a,0x0c,0x40,0x76,0x6f,0x6c,0x75,0x6d,0x65,0x69,0x69,0x3a,0x0b,0x40,0x70,0x69,0x74,0x63,0x68,0x69,0x69))
  Wait(60)
  PictureDisplay(5,"80_arumaeruma_st61",0,0,0,0,100,100,0,0)
  PictureMove(5,null,0,0,0,0,100,100,255,0,30,true)
  ShowMessageFace("arumaeruma_fc2",0,0,2,4)
  ShowMessage("\\n<アルマエルマ>Fufufu... I've been waiting for you. ♪")
  If(0,4,0)
   ShowMessageFace("alice_fc6",0,0,2,5)
   ShowMessage("\\n<アリス>You're kidding! Alma Elma!\nWhy is one of the Four Heavenly Knights in this tournament!?")
   ShowMessageFace("arumaeruma_fc2",0,0,2,6)
   ShowMessage("\\n<アルマエルマ>Ara, look at the tiny Monster Lord... Is it mere coincidence that we meet here? Or perhaps...")
   0()
  EndIf()
  If(0,5,0)
   ShowMessageFace("iriasu_fc4",7,0,2,7)
   ShowMessage("\\n<イリアス>I knew it. One of the Four Heavenly Knights, Alma Elma!")
   ShowMessageFace("arumaeruma_fc2",0,0,2,8)
   ShowMessage("\\n<アルマエルマ>Ara, you know about me?\nYou seem a bit different from those other stray angels somehow...")
   0()
  EndIf()
  If(0,6,0)
   ShowMessageFace("sonia_fc3",7,0,2,9)
   ShowMessage("\\n<ソニア>Four Heavenly Knights? You mean the famous ones from the Monster Lord's Army!? It doesn't make any sense for her to be in this tournament!")
   0()
  Else()
   ShowMessageFace("ruka_fc1",0,0,2,10)
   ShowMessage("\\n<ルカ>Four Heavenly Knights? From the Monster Lord's Army!? Why would someone like that show up here!")
   0()
  EndIf()
  If(4,12,0)
   ShowMessageFace("sylph_fc1",4,0,2,11)
   ShowMessage("\\n<シルフ>That's some beautiful but fierce wind!")
   0()
  EndIf()
  ShowMessageFace("arumaeruma_fc2",0,0,2,12)
  ShowMessage("\\n<アルマエルマ>Because I love martial arts tournaments. ♪\nLet's ignore who we are and just enjoy the match... ♪")
  ShowMessageFace("",0,0,2,13)
  ShowMessage("\\n<Referee>Their opponent is Kyuba!\nShe's shown us overwhelming strength and a speed that her opponents haven't been able to react to!")
  ShowMessageFace("",0,0,2,14)
  ShowMessage("\\n<Referee>All right, let the finals begin!\nWho will the goddess of victory smile upon? The young hero, or the solitary succubus!?")
  ShowMessageFace("arumaeruma_fc2",0,0,2,15)
  ShowMessage("\\n<アルマエルマ>Okay, let's have a good time together. ♪")
  ShowMessageFace("ruka_fc1",0,0,2,16)
  ShowMessage("\\n<ルカ>Just because we're up against one of the Four Heavenly Knights doesn't mean we're going to lose!")
  If(4,129,0)
   ShowMessageFace("brunhild_fc1",0,0,2,17)
   ShowMessage("\\n<ヒルデ>Target: Succubus. Initiate battle mode.")
   0()
  EndIf()
  If(4,57,0)
   ShowMessageFace("inp_fc3",0,0,2,18)
   ShowMessage("\\n<ルミ>Fight!")
   0()
  EndIf()
  ShowMessageFace("",0,0,2,19)
  ShowMessage("\\n<Referee>This is the match of the century!\nFight!!")
  PictureClear(5)
  SetBattleBGM(bytes(0x04,0x08,0x6f,0x3a,0x0d,0x52,0x50,0x47,0x3a,0x3a,0x42,0x47,0x4d,0x08,0x3a,0x0a,0x40,0x6e,0x61,0x6d,0x65,0x49,0x22,0x14,0x62,0x6f,0x73,0x73,0x5f,0x79,0x6f,0x6e,0x73,0x65,0x69,0x72,0x65,0x69,0x32,0x06,0x3a,0x06,0x45,0x54,0x3a,0x0c,0x40,0x76,0x6f,0x6c,0x75,0x6d,0x65,0x69,0x69,0x3a,0x0b,0x40,0x70,0x69,0x74,0x63,0x68,0x69,0x69))
  ChangeSwitch(22,22,0)
  Battle(0,609,false,false)
  ChangeSwitch(22,22,1)
  SetBattleBGM(bytes(0x04,0x08,0x6f,0x3a,0x0d,0x52,0x50,0x47,0x3a,0x3a,0x42,0x47,0x4d,0x08,0x3a,0x0a,0x40,0x6e,0x61,0x6d,0x65,0x49,0x22,0x0b,0x62,0x61,0x74,0x74,0x6c,0x65,0x06,0x3a,0x06,0x45,0x54,0x3a,0x0c,0x40,0x76,0x6f,0x6c,0x75,0x6d,0x65,0x69,0x69,0x3a,0x0b,0x40,0x70,0x69,0x74,0x63,0x68,0x69,0x69))
  241(bytes(0x04,0x08,0x6f,0x3a,0x0d,0x52,0x50,0x47,0x3a,0x3a,0x42,0x47,0x4d,0x08,0x3a,0x0a,0x40,0x6e,0x61,0x6d,0x65,0x49,0x22,0x0c,0x62,0x6f,0x73,0x73,0x30,0x2d,0x32,0x06,0x3a,0x06,0x45,0x54,0x3a,0x0c,0x40,0x76,0x6f,0x6c,0x75,0x6d,0x65,0x69,0x69,0x3a,0x0b,0x40,0x70,0x69,0x74,0x63,0x68,0x69,0x69))
  PictureDisplay(5,"80_arumaeruma_st61",0,0,0,0,100,100,0,0)
  PictureMove(5,null,0,0,0,0,100,100,255,0,30,true)
  ShowMessageFace("ruka_fc1",0,0,2,20)
  ShowMessage("\\n<ルカ>D-did we win...?")
  If(0,4,0)
   ShowMessageFace("alice_fc6",0,0,2,21)
   ShowMessage("\\n<アリス>Don't be an idiot. She isn't even using half her true potential.")
   0()
  EndIf()
  If(0,5,0)
   ShowMessageFace("iriasu_fc4",7,0,2,22)
   ShowMessage("\\n<イリアス>No... She doesn't appear to be taking us seriously. This fight is nothing more than a game to her.")
   0()
  EndIf()
  If(4,129,0)
   ShowMessageFace("brunhild_fc1",0,0,2,23)
   ShowMessage("\\n<ヒルデ>Enemy remaining strength... 94%.\nWe have barely scratched her...")
   0()
  EndIf()
  ShowMessageFace("arumaeruma_fc2",0,0,2,24)
  ShowMessage("\\n<アルマエルマ>Well then, that's enough foreplay. It's time for the main course--")
  ShowMessageFace("mefist_fc1",0,0,2,25)
  ShowMessage("\\n<メフィスト>...Hold it, Alma Elma.\nThat's enough fooling around for you.")
  PictureClear(5)
  Wait(60)
  250(bytes(0x04,0x08,0x6f,0x3a,0x0c,0x52,0x50,0x47,0x3a,0x3a,0x53,0x45,0x08,0x3a,0x0a,0x40,0x6e,0x61,0x6d,0x65,0x49,0x22,0x0d,0x6d,0x6f,0x6e,0x5f,0x77,0x61,0x72,0x70,0x06,0x3a,0x06,0x45,0x54,0x3a,0x0b,0x40,0x70,0x69,0x74,0x63,0x68,0x69,0x69,0x3a,0x0c,0x40,0x76,0x6f,0x6c,0x75,0x6d,0x65,0x69,0x55))
  ChangeSwitch(32,32,0)
  241(bytes(0x04,0x08,0x6f,0x3a,0x0d,0x52,0x50,0x47,0x3a,0x3a,0x42,0x47,0x4d,0x08,0x3a,0x0a,0x40,0x6e,0x61,0x6d,0x65,0x49,0x22,0x0a,0x6b,0x69,0x6b,0x69,0x32,0x06,0x3a,0x06,0x45,0x54,0x3a,0x0c,0x40,0x76,0x6f,0x6c,0x75,0x6d,0x65,0x69,0x69,0x3a,0x0b,0x40,0x70,0x69,0x74,0x63,0x68,0x69,0x69))
  205(-1,bytes(0x04,0x08,0x6f,0x3a,0x13,0x52,0x50,0x47,0x3a,0x3a,0x4d,0x6f,0x76,0x65,0x52,0x6f,0x75,0x74,0x65,0x09,0x3a,0x0c,0x40,0x72,0x65,0x70,0x65,0x61,0x74,0x46,0x3a,0x0f,0x40,0x73,0x6b,0x69,0x70,0x70,0x61,0x62,0x6c,0x65,0x46,0x3a,0x0a,0x40,0x77,0x61,0x69,0x74,0x54,0x3a,0x0a,0x40,0x6c,0x69,0x73,0x74,0x5b,0x07,0x6f,0x3a,0x15,0x52,0x50,0x47,0x3a,0x3a,0x4d,0x6f,0x76,0x65,0x43,0x6f,0x6d,0x6d,0x61,0x6e,0x64,0x07,0x3a,0x0a,0x40,0x63,0x6f,0x64,0x65,0x69,0x18,0x3a,0x10,0x40,0x70,0x61,0x72,0x61,0x6d,0x65,0x74,0x65,0x72,0x73,0x5b,0x00,0x6f,0x3b,0x0a,0x07,0x3b,0x0b,0x69,0x00,0x3b,0x0c,0x5b,0x00))
  205(83,bytes(0x04,0x08,0x6f,0x3a,0x13,0x52,0x50,0x47,0x3a,0x3a,0x4d,0x6f,0x76,0x65,0x52,0x6f,0x75,0x74,0x65,0x09,0x3a,0x0c,0x40,0x72,0x65,0x70,0x65,0x61,0x74,0x46,0x3a,0x0f,0x40,0x73,0x6b,0x69,0x70,0x70,0x61,0x62,0x6c,0x65,0x46,0x3a,0x0a,0x40,0x77,0x61,0x69,0x74,0x54,0x3a,0x0a,0x40,0x6c,0x69,0x73,0x74,0x5b,0x07,0x6f,0x3a,0x15,0x52,0x50,0x47,0x3a,0x3a,0x4d,0x6f,0x76,0x65,0x43,0x6f,0x6d,0x6d,0x61,0x6e,0x64,0x07,0x3a,0x0a,0x40,0x63,0x6f,0x64,0x65,0x69,0x18,0x3a,0x10,0x40,0x70,0x61,0x72,0x61,0x6d,0x65,0x74,0x65,0x72,0x73,0x5b,0x00,0x6f,0x3b,0x0a,0x07,0x3b,0x0b,0x69,0x00,0x3b,0x0c,0x5b,0x00))
  If(0,4,0)
   ShowMessageFace("alice_fc6",0,0,2,26)
   ShowMessage("\\n<アリス>Mephisto!!\nWhat are you up to!?")
   0()
  EndIf()
  If(0,5,0)
   ShowMessageFace("iriasu_fc4",7,0,2,27)
   ShowMessage("\\n<イリアス>Mephisto!!\nWhy do you interfere with our match!?")
   0()
  EndIf()
  PictureDisplay(6,"80_arumaeruma_st61",0,0,-150,0,100,100,0,0)
  PictureDisplay(5,"80_mefist_st01",0,0,150,0,100,100,0,0)
  PictureMove(6,null,0,0,-150,0,100,100,255,0,30,false)
  PictureMove(5,null,0,0,150,0,100,100,255,0,30,true)
  ShowMessageFace("arumaeruma_fc2",0,0,2,28)
  ShowMessage("\\n<アルマエルマ>You are Grand Noah's magical advisor, are you not? It appears I've been artfully lured here.")
  ShowMessageFace("mefist_fc1",0,0,2,29)
  ShowMessage("\\n<メフィスト>We can't let a betrayer like you have free reign. As such, this is their command.")
  ShowMessageFace("arumaeruma_fc2",0,0,2,30)
  ShowMessage("\\n<アルマエルマ>So this entire tournament was a trap. You even hyped up a skilled young hero...")
  ShowMessageFace("arumaeruma_fc2",0,0,2,31)
  ShowMessage("\\n<アルマエルマ>But you don't even have the ability to defeat me, do you? Even if Luka-boy and his friends jump in, you still won't win.")
  ShowMessageFace("mefist_fc1",0,0,2,32)
  ShowMessage("\\n<メフィスト>On that point, you are mistaken.\nI arranged for a bit of help.")
  PictureClear(5)
  PictureClear(6)
  Wait(60)
  250(bytes(0x04,0x08,0x6f,0x3a,0x0c,0x52,0x50,0x47,0x3a,0x3a,0x53,0x45,0x08,0x3a,0x0a,0x40,0x6e,0x61,0x6d,0x65,0x49,0x22,0x0d,0x6d,0x6f,0x6e,0x5f,0x77,0x61,0x72,0x70,0x06,0x3a,0x06,0x45,0x54,0x3a,0x0b,0x40,0x70,0x69,0x74,0x63,0x68,0x69,0x69,0x3a,0x0c,0x40,0x76,0x6f,0x6c,0x75,0x6d,0x65,0x69,0x55))
  ChangeSwitch(33,33,0)
  241(bytes(0x04,0x08,0x6f,0x3a,0x0d,0x52,0x50,0x47,0x3a,0x3a,0x42,0x47,0x4d,0x08,0x3a,0x0a,0x40,0x6e,0x61,0x6d,0x65,0x49,0x22,0x0a,0x62,0x6f,0x73,0x73,0x30,0x06,0x3a,0x06,0x45,0x54,0x3a,0x0c,0x40,0x76,0x6f,0x6c,0x75,0x6d,0x65,0x69,0x69,0x3a,0x0b,0x40,0x70,0x69,0x74,0x63,0x68,0x69,0x69))
  Wait(60)
  PictureDisplay(5,"80_granberia_st61",0,0,0,0,100,100,0,0)
  PictureMove(5,null,0,0,0,0,100,100,255,0,30,true)
  ShowMessageFace("granberia_fc3",0,0,2,33)
  ShowMessage("\\n<グランベリア>............")
  If(0,4,0)
   ShowMessageFace("alice_fc6",0,0,2,34)
   ShowMessage("\\n<アリス>No way... Granberia!?")
   0()
  EndIf()
  If(0,5,0)
   ShowMessageFace("iriasu_fc4",5,0,2,35)
   ShowMessage("\\n<イリアス>No way... Granberia!?")
   0()
  EndIf()
  If(4,171,0)
   ShowMessageFace("lizardboss_fc1",5,0,2,36)
   ShowMessage("\\n<ミランダ>...!!")
   0()
  EndIf()
  PictureDisplay(5,"80_granberia_st65",0,0,0,0,100,100,0,0)
  ShowMessageFace("granberia_fc3",4,0,2,37)
  ShowMessage("\\n<グランベリア>Answer me, Alma Elma.\nWhy did you betray the Monster Lord!?")
  PictureDisplay(5,"80_arumaeruma_st61",0,0,-150,0,100,100,255,0)
  PictureDisplay(6,"80_granberia_st65",0,0,150,0,100,100,255,0)
  ShowMessageFace("arumaeruma_fc2",0,0,2,38)
  ShowMessage("\\n<アルマエルマ>I betrayed no one. The Monster Lord I agreed to obey is not the one currently on the throne. I choose to let the wind blow as it pleases.")
  ShowMessageFace("granberia_fc3",4,0,2,39)
  ShowMessage("\\n<グランベリア>Then I shall cut you down where you stand!")
  ShowMessageFace("arumaeruma_fc2",0,0,2,40)
  ShowMessage("\\n<アルマエルマ>So you say...\nBut this will hardly be the first time you've tried, will it, Granberia-chan?")
  ShowMessageFace("granberia_fc3",4,0,2,41)
  ShowMessage("\\n<グランベリア>A fight with our lives on the line is completely different than sparring between comrades! I'll show you that this time won't end with you playing around!")
  ShowMessageFace("arumaeruma_fc2",7,0,2,42)
  ShowMessage("\\n<アルマエルマ>Aaaah, you're so serious...")
  PictureClear(5)
  PictureClear(6)
  Wait(60)
  205(83,bytes(0x04,0x08,0x6f,0x3a,0x13,0x52,0x50,0x47,0x3a,0x3a,0x4d,0x6f,0x76,0x65,0x52,0x6f,0x75,0x74,0x65,0x09,0x3a,0x0c,0x40,0x72,0x65,0x70,0x65,0x61,0x74,0x46,0x3a,0x0f,0x40,0x73,0x6b,0x69,0x70,0x70,0x61,0x62,0x6c,0x65,0x46,0x3a,0x0a,0x40,0x77,0x61,0x69,0x74,0x54,0x3a,0x0a,0x40,0x6c,0x69,0x73,0x74,0x5b,0x07,0x6f,0x3a,0x15,0x52,0x50,0x47,0x3a,0x3a,0x4d,0x6f,0x76,0x65,0x43,0x6f,0x6d,0x6d,0x61,0x6e,0x64,0x07,0x3a,0x0a,0x40,0x63,0x6f,0x64,0x65,0x69,0x16,0x3a,0x10,0x40,0x70,0x61,0x72,0x61,0x6d,0x65,0x74,0x65,0x72,0x73,0x5b,0x00,0x6f,0x3b,0x0a,0x07,0x3b,0x0b,0x69,0x00,0x3b,0x0c,0x5b,0x00))
  Wait(60)
  PictureDisplay(5,"80_arumaeruma_st61",0,0,0,0,100,100,0,0)
  PictureMove(5,null,0,0,0,0,100,100,255,0,30,true)
  ShowMessageFace("arumaeruma_fc2",0,0,2,43)
  ShowMessage("\\n<アルマエルマ>You weren't told any of this, were you Luka-boy? No, Mephisto just used you too.")
  205(-1,bytes(0x04,0x08,0x6f,0x3a,0x13,0x52,0x50,0x47,0x3a,0x3a,0x4d,0x6f,0x76,0x65,0x52,0x6f,0x75,0x74,0x65,0x09,0x3a,0x0c,0x40,0x72,0x65,0x70,0x65,0x61,0x74,0x46,0x3a,0x0f,0x40,0x73,0x6b,0x69,0x70,0x70,0x61,0x62,0x6c,0x65,0x46,0x3a,0x0a,0x40,0x77,0x61,0x69,0x74,0x54,0x3a,0x0a,0x40,0x6c,0x69,0x73,0x74,0x5b,0x07,0x6f,0x3a,0x15,0x52,0x50,0x47,0x3a,0x3a,0x4d,0x6f,0x76,0x65,0x43,0x6f,0x6d,0x6d,0x61,0x6e,0x64,0x07,0x3a,0x0a,0x40,0x63,0x6f,0x64,0x65,0x69,0x17,0x3a,0x10,0x40,0x70,0x61,0x72,0x61,0x6d,0x65,0x74,0x65,0x72,0x73,0x5b,0x00,0x6f,0x3b,0x0a,0x07,0x3b,0x0b,0x69,0x00,0x3b,0x0c,0x5b,0x00))
  ShowMessageFace("ruka_fc1",0,0,2,44)
  ShowMessage("\\n<ルカ>Well, yeah but...")
  ShowMessageFace("arumaeruma_fc2",0,0,2,45)
  ShowMessage("\\n<アルマエルマ>Doesn't that make you mad?\nBeing treated like a pawn, having your championship match ruined...")
  ShowMessageFace("ruka_fc1",0,0,2,46)
  ShowMessage("\\n<ルカ>K-kinda...")
  If(4,202,0)
   ShowMessageFace("bonny_fc1",0,0,2,47)
   ShowMessage("\\n<ボニー>I can't abide this!\nThe big moment for the Fishy Pirates has gone down the tubes!")
   0()
  EndIf()
  If(4,203,0)
   ShowMessageFace("tatunoko_k_fc1",2,0,2,48)
   ShowMessage("\\n<たつこ>This intrusion is a cowardly act!")
   0()
  EndIf()
  ShowMessageFace("arumaeruma_fc2",0,0,2,49)
  ShowMessage("\\n<アルマエルマ>Then how about teaming up with me?\nLet's beat up these party crashers together. ♪")
  PictureDisplay(5,"80_arumaeruma_st61",0,0,-150,0,100,100,255,0)
  PictureDisplay(6,"80_granberia_st65",0,0,150,0,100,100,255,0)
  ShowMessageFace("granberia_fc3",4,0,2,50)
  ShowMessage("\\n<グランベリア>Are you done talking!?\nGo join Alma Elma! See if I care!")
  205(-1,bytes(0x04,0x08,0x6f,0x3a,0x13,0x52,0x50,0x47,0x3a,0x3a,0x4d,0x6f,0x76,0x65,0x52,0x6f,0x75,0x74,0x65,0x09,0x3a,0x0c,0x40,0x72,0x65,0x70,0x65,0x61,0x74,0x46,0x3a,0x0f,0x40,0x73,0x6b,0x69,0x70,0x70,0x61,0x62,0x6c,0x65,0x46,0x3a,0x0a,0x40,0x77,0x61,0x69,0x74,0x54,0x3a,0x0a,0x40,0x6c,0x69,0x73,0x74,0x5b,0x07,0x6f,0x3a,0x15,0x52,0x50,0x47,0x3a,0x3a,0x4d,0x6f,0x76,0x65,0x43,0x6f,0x6d,0x6d,0x61,0x6e,0x64,0x07,0x3a,0x0a,0x40,0x63,0x6f,0x64,0x65,0x69,0x18,0x3a,0x10,0x40,0x70,0x61,0x72,0x61,0x6d,0x65,0x74,0x65,0x72,0x73,0x5b,0x00,0x6f,0x3b,0x0a,0x07,0x3b,0x0b,0x69,0x00,0x3b,0x0c,0x5b,0x00))
  205(83,bytes(0x04,0x08,0x6f,0x3a,0x13,0x52,0x50,0x47,0x3a,0x3a,0x4d,0x6f,0x76,0x65,0x52,0x6f,0x75,0x74,0x65,0x09,0x3a,0x0c,0x40,0x72,0x65,0x70,0x65,0x61,0x74,0x46,0x3a,0x0f,0x40,0x73,0x6b,0x69,0x70,0x70,0x61,0x62,0x6c,0x65,0x46,0x3a,0x0a,0x40,0x77,0x61,0x69,0x74,0x54,0x3a,0x0a,0x40,0x6c,0x69,0x73,0x74,0x5b,0x07,0x6f,0x3a,0x15,0x52,0x50,0x47,0x3a,0x3a,0x4d,0x6f,0x76,0x65,0x43,0x6f,0x6d,0x6d,0x61,0x6e,0x64,0x07,0x3a,0x0a,0x40,0x63,0x6f,0x64,0x65,0x69,0x18,0x3a,0x10,0x40,0x70,0x61,0x72,0x61,0x6d,0x65,0x74,0x65,0x72,0x73,0x5b,0x00,0x6f,0x3b,0x0a,0x07,0x3b,0x0b,0x69,0x00,0x3b,0x0c,0x5b,0x00))
  ShowMessageFace("ruka_fc1",0,0,2,51)
  ShowMessage("\\n<ルカ>Hey, hold on! We haven't...!")
  If(0,4,0)
   ShowMessageFace("alice_fc6",1,0,2,52)
   ShowMessage("\\n<アリス>くっ、成り行きだが仕方ない！")
   ShowMessage("アルマエルマ、余と共に戦え！")
   ShowMessageFace("arumaeruma_fc2",1,0,2,53)
   ShowMessage("\\n<アルマエルマ>了解、魔王様...♪")
   0()
  EndIf()
  If(0,5,0)
   ShowMessageFace("iriasu_fc4",7,0,2,54)
   ShowMessage("\\n<イリアス>あの単細胞トカゲは聞く耳を持ちません！")
   ShowMessage("成り行きですが、いきますよ！")
   ShowMessageFace("arumaeruma_fc2",1,0,2,55)
   ShowMessage("\\n<アルマエルマ>あははっ、こういうのも面白いわね...♪")
   0()
  EndIf()
  If(4,57,0)
   ShowMessageFace("inp_fc3",0,0,2,56)
   ShowMessage("\\n<ルミ>Fight!")
   If(4,56,0)
    ShowMessageFace("inp_fc1",3,0,2,57)
    ShowMessage("\\n<ラミ>I've never seen Rumi fired up before...")
    0()
   EndIf()
   0()
  EndIf()
  PictureClear(5)
  PictureClear(6)
  314(0,0)
  DefineLabel("パーティ")
  355("add_actor_ex(19)")
  If(0,1922,1)
   If(4,19,0)
    0()
   Else()
    ShowMessageFace("",0,0,2,58)
    ShowMessage("You can't remove Alma Elma from the party!")
    JumpToLabel("パーティ")
    0()
   EndIf()
   0()
  EndIf()
  249(bytes(0x04,0x08,0x6f,0x3a,0x0c,0x52,0x50,0x47,0x3a,0x3a,0x4d,0x45,0x08,0x3a,0x0a,0x40,0x6e,0x61,0x6d,0x65,0x49,0x22,0x0c,0x66,0x61,0x6e,0x66,0x61,0x6c,0x65,0x06,0x3a,0x06,0x45,0x54,0x3a,0x0b,0x40,0x70,0x69,0x74,0x63,0x68,0x69,0x69,0x3a,0x0c,0x40,0x76,0x6f,0x6c,0x75,0x6d,0x65,0x69,0x69))
  ShowMessageFace("",0,0,2,59)
  ShowMessage("Alma Elma has temporarily joined the party!")
  Wait(60)
  SetBattleBGM(bytes(0x04,0x08,0x6f,0x3a,0x0d,0x52,0x50,0x47,0x3a,0x3a,0x42,0x47,0x4d,0x08,0x3a,0x0a,0x40,0x6e,0x61,0x6d,0x65,0x49,0x22,0x11,0x62,0x6f,0x73,0x73,0x5f,0x73,0x69,0x74,0x65,0x6e,0x6e,0x6f,0x06,0x3a,0x06,0x45,0x54,0x3a,0x0c,0x40,0x76,0x6f,0x6c,0x75,0x6d,0x65,0x69,0x69,0x3a,0x0b,0x40,0x70,0x69,0x74,0x63,0x68,0x69,0x69))
  ChangeSwitch(22,22,0)
  Battle(0,610,false,false)
  ChangeSwitch(22,22,1)
  SetBattleBGM(bytes(0x04,0x08,0x6f,0x3a,0x0d,0x52,0x50,0x47,0x3a,0x3a,0x42,0x47,0x4d,0x08,0x3a,0x0a,0x40,0x6e,0x61,0x6d,0x65,0x49,0x22,0x0b,0x62,0x61,0x74,0x74,0x6c,0x65,0x06,0x3a,0x06,0x45,0x54,0x3a,0x0c,0x40,0x76,0x6f,0x6c,0x75,0x6d,0x65,0x69,0x69,0x3a,0x0b,0x40,0x70,0x69,0x74,0x63,0x68,0x69,0x69))
  314(0,0)
  If(0,1922,1)
   ChangeSwitch(1019,1019,1)
   ChangePartyMember(19,1,0)
   0()
  EndIf()
  241(bytes(0x04,0x08,0x6f,0x3a,0x0d,0x52,0x50,0x47,0x3a,0x3a,0x42,0x47,0x4d,0x08,0x3a,0x0a,0x40,0x6e,0x61,0x6d,0x65,0x49,0x22,0x0a,0x6b,0x69,0x6b,0x69,0x32,0x06,0x3a,0x06,0x45,0x54,0x3a,0x0c,0x40,0x76,0x6f,0x6c,0x75,0x6d,0x65,0x69,0x69,0x3a,0x0b,0x40,0x70,0x69,0x74,0x63,0x68,0x69,0x69))
  PictureDisplay(5,"80_arumaeruma_st61",0,0,-150,0,100,100,0,0)
  PictureDisplay(6,"80_granberia_st63",0,0,150,0,100,100,0,0)
  PictureMove(5,null,0,0,-150,0,100,100,255,0,30,false)
  PictureMove(6,null,0,0,150,0,100,100,255,0,30,true)
  ShowMessageFace("granberia_fc3",2,0,2,60)
  ShowMessage("\\n<グランベリア>くっ...！")
  ShowMessage("この私が、不覚を取るとは...！")
  ShowMessageFace("arumaeruma_fc2",0,0,2,61)
  ShowMessage("\\n<アルマエルマ>力量は互角でも、得意技の相性が悪すぎるみたいね。")
  ShowMessage("グランベリアちゃんじゃ、やっぱり私には勝てないわ...")
  PictureDisplay(6,"80_arumaeruma_st61",0,0,-150,0,100,100,255,0)
  PictureDisplay(5,"80_mefist_st03",0,0,150,0,100,100,255,0)
  ShowMessageFace("mefist_fc1",2,0,2,62)
  ShowMessage("\\n<メフィスト>大会で消耗した隙を狙っても、勝てないとは...")
  ShowMessage("アルマエルマの力、見誤っていましたか。")
  ShowMessageFace("arumaeruma_fc2",0,0,2,63)
  ShowMessage("\\n<アルマエルマ>それで、次はどうするのかしら...？")
  ShowMessage("あなたが自ら戦ってみる？")
  ShowMessageFace("mefist_fc1",0,0,2,64)
  ShowMessage("\\n<メフィスト>私とて、かつては世に名を響かせた妖魔...")
  ShowMessage("とは言え、四天王が相手では分が悪いのも事実です。")
  ShowMessageFace("mefist_fc1",0,0,2,65)
  ShowMessage("\\n<メフィスト>仕方ありません、ここは退いておきましょう...")
  PictureClear(5)
  PictureClear(6)
  Wait(60)
  250(bytes(0x04,0x08,0x6f,0x3a,0x0c,0x52,0x50,0x47,0x3a,0x3a,0x53,0x45,0x08,0x3a,0x0a,0x40,0x6e,0x61,0x6d,0x65,0x49,0x22,0x0d,0x6d,0x6f,0x6e,0x5f,0x77,0x61,0x72,0x70,0x06,0x3a,0x06,0x45,0x54,0x3a,0x0b,0x40,0x70,0x69,0x74,0x63,0x68,0x69,0x69,0x3a,0x0c,0x40,0x76,0x6f,0x6c,0x75,0x6d,0x65,0x69,0x55))
  ChangeSwitch(32,32,1)
  241(bytes(0x04,0x08,0x6f,0x3a,0x0d,0x52,0x50,0x47,0x3a,0x3a,0x42,0x47,0x4d,0x08,0x3a,0x0a,0x40,0x6e,0x61,0x6d,0x65,0x49,0x22,0x14,0x73,0x63,0x65,0x6e,0x65,0x5f,0x65,0x70,0x69,0x6c,0x6f,0x67,0x75,0x65,0x32,0x06,0x3a,0x06,0x45,0x54,0x3a,0x0c,0x40,0x76,0x6f,0x6c,0x75,0x6d,0x65,0x69,0x69,0x3a,0x0b,0x40,0x70,0x69,0x74,0x63,0x68,0x69,0x69))
  Wait(60)
  PictureDisplay(5,"80_arumaeruma_st61",0,0,-150,0,100,100,0,0)
  PictureDisplay(6,"80_granberia_st63",0,0,150,0,100,100,0,0)
  PictureMove(5,null,0,0,-150,0,100,100,255,0,30,false)
  PictureMove(6,null,0,0,150,0,100,100,255,0,30,true)
  ShowMessageFace("granberia_fc3",2,0,2,66)
  ShowMessage("\\n<グランベリア>アルマエルマ...なぜ、魔王様に従わない？")
  ShowMessage("私からも取りなしてやる、魔王城に戻ってこい！")
  ShowMessageFace("arumaeruma_fc2",3,0,2,67)
  ShowMessage("\\n<アルマエルマ>ごめんね、グランベリアちゃん...")
  ShowMessage("風は自由に、気まぐれに吹くものよ。")
  ShowMessageFace("arumaeruma_fc2",3,0,2,68)
  ShowMessage("\\n<アルマエルマ>それに私、今の魔王様のやり方には気が乗らないの。")
  ShowMessage("残念だけど、例の計画には関わらないわ...")
  ShowMessageFace("granberia_fc3",2,0,2,69)
  ShowMessage("\\n<グランベリア>いつまでそんな事を言っていられる...")
  ShowMessage("もはや世界は破滅の危機にあるのだぞ...")
  ShowMessageFace("granberia_fc3",2,0,2,70)
  ShowMessage("\\n<グランベリア>逃げられんぞ、アルマエルマ...")
  ShowMessage("魔王様の追っ手からではない、四天王としての責任からな...")
  PictureClear(5)
  PictureClear(6)
  Wait(60)
  250(bytes(0x04,0x08,0x6f,0x3a,0x0c,0x52,0x50,0x47,0x3a,0x3a,0x53,0x45,0x08,0x3a,0x0a,0x40,0x6e,0x61,0x6d,0x65,0x49,0x22,0x0d,0x6d,0x6f,0x6e,0x5f,0x77,0x61,0x72,0x70,0x06,0x3a,0x06,0x45,0x54,0x3a,0x0b,0x40,0x70,0x69,0x74,0x63,0x68,0x69,0x69,0x3a,0x0c,0x40,0x76,0x6f,0x6c,0x75,0x6d,0x65,0x69,0x55))
  ChangeSwitch(33,33,1)
  Wait(60)
  PictureDisplay(5,"80_arumaeruma_st61",0,0,0,0,100,100,0,0)
  PictureMove(5,null,0,0,0,0,100,100,255,0,30,true)
  ShowMessageFace("arumaeruma_fc2",3,0,2,71)
  ShowMessage("\\n<アルマエルマ>...グランベリアちゃんは真面目よねぇ。")
  ShowMessage("もっと自由に、思いのままに生きればいいのに...")
  205(-1,bytes(0x04,0x08,0x6f,0x3a,0x13,0x52,0x50,0x47,0x3a,0x3a,0x4d,0x6f,0x76,0x65,0x52,0x6f,0x75,0x74,0x65,0x09,0x3a,0x0c,0x40,0x72,0x65,0x70,0x65,0x61,0x74,0x46,0x3a,0x0f,0x40,0x73,0x6b,0x69,0x70,0x70,0x61,0x62,0x6c,0x65,0x46,0x3a,0x0a,0x40,0x77,0x61,0x69,0x74,0x54,0x3a,0x0a,0x40,0x6c,0x69,0x73,0x74,0x5b,0x07,0x6f,0x3a,0x15,0x52,0x50,0x47,0x3a,0x3a,0x4d,0x6f,0x76,0x65,0x43,0x6f,0x6d,0x6d,0x61,0x6e,0x64,0x07,0x3a,0x0a,0x40,0x63,0x6f,0x64,0x65,0x69,0x17,0x3a,0x10,0x40,0x70,0x61,0x72,0x61,0x6d,0x65,0x74,0x65,0x72,0x73,0x5b,0x00,0x6f,0x3b,0x0a,0x07,0x3b,0x0b,0x69,0x00,0x3b,0x0c,0x5b,0x00))
  205(83,bytes(0x04,0x08,0x6f,0x3a,0x13,0x52,0x50,0x47,0x3a,0x3a,0x4d,0x6f,0x76,0x65,0x52,0x6f,0x75,0x74,0x65,0x09,0x3a,0x0c,0x40,0x72,0x65,0x70,0x65,0x61,0x74,0x46,0x3a,0x0f,0x40,0x73,0x6b,0x69,0x70,0x70,0x61,0x62,0x6c,0x65,0x46,0x3a,0x0a,0x40,0x77,0x61,0x69,0x74,0x54,0x3a,0x0a,0x40,0x6c,0x69,0x73,0x74,0x5b,0x07,0x6f,0x3a,0x15,0x52,0x50,0x47,0x3a,0x3a,0x4d,0x6f,0x76,0x65,0x43,0x6f,0x6d,0x6d,0x61,0x6e,0x64,0x07,0x3a,0x0a,0x40,0x63,0x6f,0x64,0x65,0x69,0x16,0x3a,0x10,0x40,0x70,0x61,0x72,0x61,0x6d,0x65,0x74,0x65,0x72,0x73,0x5b,0x00,0x6f,0x3b,0x0a,0x07,0x3b,0x0b,0x69,0x00,0x3b,0x0c,0x5b,0x00))
  ShowMessageFace("arumaeruma_fc2",0,0,2,72)
  ShowMessage("\\n<アルマエルマ>...なんだか、白けちゃったわね。")
  ShowMessage("決勝戦は、ルカちゃんの勝ちでいいわよ。")
  ShowMessageFace("ruka_fc1",0,0,2,73)
  ShowMessage("\\n<ルカ>え...？　勝ちって...僕達が優勝ってこと？")
  If(0,4,0)
   ShowMessageFace("alice_fc5",0,0,2,74)
   ShowMessage("\\n<アリス>これからどうするのだ、アルマエルマ。")
   ShowMessage("聞く限り、現在の魔王...15世に反旗を翻したようだが。")
   ShowMessageFace("arumaeruma_fc2",0,0,2,75)
   ShowMessage("\\n<アルマエルマ>反旗を翻したなんて、大層なものじゃないわ。")
   ShowMessage("風は風、思うがままに吹くだけよ。")
   ShowMessageFace("alice_fc5",2,0,2,76)
   ShowMessage("\\n<アリス>ならば、我々の仲間に――")
   ShowMessageFace("arumaeruma_fc2",0,0,2,77)
   ShowMessage("\\n<アルマエルマ>まだまだ、そんな気分じゃないわね...")
   ShowMessage("私は私で、自由に動きたいのよ。")
   ShowMessageFace("alice_fc5",3,0,2,78)
   ShowMessage("\\n<アリス>まあ、そう言うと思ったがな...")
   0()
  EndIf()
  If(0,5,0)
   ShowMessageFace("iriasu_fc4",7,0,2,79)
   ShowMessage("\\n<イリアス>アルマエルマ...")
   ShowMessage("あなたは、今の魔王に反旗を翻したというのですか？")
   ShowMessageFace("arumaeruma_fc2",0,0,2,80)
   ShowMessage("\\n<アルマエルマ>反旗を翻したなんて、大層なものじゃないわ。")
   ShowMessage("風は風、思うがままに吹くだけよ。")
   0()
  EndIf()
  ShowMessageFace("arumaeruma_fc2",0,0,2,81)
  ShowMessage("\\n<アルマエルマ>それじゃあ、さようなら。")
  ShowMessage("もしかしたら、またどこかで会う事になるかもね...")
  If(4,12,0)
   ShowMessageFace("sylph_fc1",0,0,2,82)
   ShowMessage("\\n<シルフ>ばいば～い！")
   0()
  EndIf()
  PictureClear(5)
  Wait(60)
  250(bytes(0x04,0x08,0x6f,0x3a,0x0c,0x52,0x50,0x47,0x3a,0x3a,0x53,0x45,0x08,0x3a,0x0a,0x40,0x6e,0x61,0x6d,0x65,0x49,0x22,0x0e,0x6d,0x6f,0x6e,0x5f,0x77,0x69,0x6e,0x64,0x31,0x06,0x3a,0x06,0x45,0x54,0x3a,0x0b,0x40,0x70,0x69,0x74,0x63,0x68,0x69,0x69,0x3a,0x0c,0x40,0x76,0x6f,0x6c,0x75,0x6d,0x65,0x69,0x69))
  ChangeSwitch(31,31,1)
  ShowMessageFace("",0,0,2,83)
  ShowMessage("Alma Elma vanishes like the wind...")
  ShowMessageFace("",0,0,2,84)
  ShowMessage("\\n<Referee>えっと、どうなるんだこれ...")
  ShowMessage("どうしよう、えっと...")
  ShowMessageFace("",0,0,2,85)
  ShowMessage("\\n<Referee>最後まで闘技場に立っていたのは...ルカ！！")
  ShowMessage("よって優勝は、ルカチームだ～～！")
  ShowMessageFace("ruka_fc1",0,0,2,86)
  ShowMessage("\\n<ルカ>僕達が優勝...か。")
  If(0,6,0)
   ShowMessageFace("sonia_fc2",2,0,2,87)
   ShowMessage("\\n<ソニア>なんだか、勝った気がしない...")
   0()
  EndIf()
  If(0,4,0)
   ShowMessageFace("alice_fc5",0,0,2,88)
   ShowMessage("\\n<アリス>アルマエルマは、いったい...")
   ShowMessage("それに、メフィストの背後には...")
   0()
  EndIf()
  If(0,5,0)
   ShowMessageFace("iriasu_fc4",2,0,2,89)
   ShowMessage("\\n<イリアス>アルマエルマは、いったい...")
   ShowMessage("それに、メフィストの背後には...")
   0()
  EndIf()
  ShowMessageFace("",0,0,2,90)
  ShowMessage("こうして大歓声の中、僕達は闘技場を後にしたのだった。")
  ShowMessage("勝ちを譲られたという敗北感と、多くの謎を残して――")
  221()
  TeleportPlayer(0,383,22,7,8,2)
  ChangeVariable(1052,1052,0,0,6)
  ChangeVariable(1002,1002,0,0,24)
  216(0)
  222()
  355("gain_medal(33)")
  PictureDisplay(5,"80_grandnoa_st01",0,0,0,0,100,100,0,0)
  PictureMove(5,null,0,0,0,0,100,100,255,0,30,true)
  ShowMessageFace("grandnoa_fc1",0,0,2,91)
  ShowMessage("\\n<グランドノア女王>よくぞ、優勝を果たしました。")
  ShowMessage("まずは賞品のグリーンオーブを授けましょう。")
  250(bytes(0x04,0x08,0x6f,0x3a,0x0c,0x52,0x50,0x47,0x3a,0x3a,0x53,0x45,0x08,0x3a,0x0a,0x40,0x6e,0x61,0x6d,0x65,0x49,0x22,0x0a,0x49,0x74,0x65,0x6d,0x31,0x06,0x3a,0x06,0x45,0x54,0x3a,0x0b,0x40,0x70,0x69,0x74,0x63,0x68,0x69,0x69,0x3a,0x0c,0x40,0x76,0x6f,0x6c,0x75,0x6d,0x65,0x69,0x55))
  ChangeInventory_Item(539,0,0,1)
  If(0,2148,0)
   ShowMessageFace("tatunoko_k_fc1",2,0,2,92)
   ShowMessage("\\n<たつこ>なんだか、残念賞みたいです...")
   ShowMessageFace("umiusi_k_fc1",0,0,2,93)
   ShowMessage("\\n<ステイシー>勝ちを譲られちゃいましたからね...")
   0()
  EndIf()
  If(0,2149,0)
   ShowMessageFace("bonny_fc1",0,0,2,94)
   ShowMessage("\\n<ボニー>財宝をゲットだ！")
   ShowMessage("...だが、なんだか残念賞気分だな。")
   ShowMessageFace("ashel_fc1",0,0,2,95)
   ShowMessage("\\n<アシェル>こればっかりは、お嬢に賛成です。")
   ShowMessage("ずいぶん土が付いた感じですね。")
   0()
  EndIf()
  ShowMessageFace("grandnoa_fc1",2,0,2,96)
  ShowMessage("\\n<グランドノア女王>さて...")
  ShowMessage("女王杯に優勝すれば、エスタの調査団に入れるという話でしたね。")
  ShowMessageFace("grandnoa_fc1",2,0,2,97)
  ShowMessage("\\n<グランドノア女王>............")
  241(bytes(0x04,0x08,0x6f,0x3a,0x0d,0x52,0x50,0x47,0x3a,0x3a,0x42,0x47,0x4d,0x08,0x3a,0x0a,0x40,0x6e,0x61,0x6d,0x65,0x49,0x22,0x0a,0x6b,0x69,0x6b,0x69,0x32,0x06,0x3a,0x06,0x45,0x54,0x3a,0x0c,0x40,0x76,0x6f,0x6c,0x75,0x6d,0x65,0x69,0x69,0x3a,0x0b,0x40,0x70,0x69,0x74,0x63,0x68,0x69,0x69))
  ShowMessageFace("grandnoa_fc1",0,0,2,98)
  ShowMessage("\\n<グランドノア女王>...その前に、もう一つ頼みたい事があるのです。")
  If(0,4,0)
   ShowMessageFace("alice_fc5",2,0,2,99)
   ShowMessage("\\n<アリス>武道大会の優勝が、調査団参加の条件だったはずだが...")
   ShowMessage("ここに至って、また頼み事だと？")
   0()
  EndIf()
  If(0,5,0)
   ShowMessageFace("iriasu_fc5",0,0,2,100)
   ShowMessage("\\n<イリアス>武道大会の優勝が、調査団参加の条件なのでしょう！")
   ShowMessage("この上まだふっかけてくるなど、私でも怒りますよ！")
   0()
  EndIf()
  If(4,79,0)
   ShowMessageFace("nuruko_fc1",0,0,2,101)
   ShowMessage("\\n<ヌルコ>きゅー！　きゅきゅー！")
   0()
  EndIf()
  ShowMessageFace("grandnoa_fc1",0,0,2,102)
  ShowMessage("\\n<グランドノア女王>しかしこれは、あなた達にも関わりのある事。")
  ShowMessage("依頼というのは、魔導顧問メフィストについてなのです。")
  ShowMessageFace("grandnoa_fc1",0,0,2,103)
  ShowMessage("\\n<グランドノア女王>ずいぶん前から、あの者の行動には疑念がありましたが...")
  ShowMessage("先の大会において、それは決定的となりました。")
  If(0,4,0)
   ShowMessageFace("alice_fc5",0,0,2,104)
   ShowMessage("\\n<アリス>うむ...メフィストは、間違いなく魔王15世と繋がっている。")
   ShowMessage("コロシアムでの言動により、それは明らかだな。")
   ShowMessageFace("alice_fc5",0,0,2,105)
   ShowMessage("\\n<アリス>すると、魔王の手先がこの国の政府内に入り込んでいた事になる。")
   ShowMessage("なんともキナ臭いな...")
   0()
  EndIf()
  If(0,5,0)
   ShowMessageFace("iriasu_fc4",7,0,2,106)
   ShowMessage("\\n<イリアス>メフィストの背後には、魔王15世がいるようですね。")
   ShowMessage("コロシアムでの言動により、もはや明白でしょう。")
   ShowMessageFace("iriasu_fc4",7,0,2,107)
   ShowMessage("\\n<イリアス>魔王の手先が、この国の中央に食い込んでいるとなると...")
   ShowMessage("なんとも陰謀の臭いがします。")
   0()
  EndIf()
  If(4,163,0)
   ShowMessageFace("lily_fc1",3,0,2,108)
   ShowMessage("\\n<リリィ>確実に裏があるわね、気に入らないわ...")
   0()
  EndIf()
  ShowMessageFace("grandnoa_fc1",0,0,2,109)
  ShowMessage("\\n<グランドノア女王>サラ女王の一件にも、謎の妖魔の暗躍がありました。")
  ShowMessage("そしてこのグランドノアの中枢にも、魔王の手の者が...")
  ShowMessageFace("grandnoa_fc1",0,0,2,110)
  ShowMessage("\\n<グランドノア女王>この闇は、どこまで広がっているのでしょうか。")
  ShowMessage("今回の大戦にも、魔王が関わっていると思えてなりません。")
  If(0,4,0)
   ShowMessageFace("alice_fc5",3,0,2,111)
   ShowMessage("\\n<アリス>確かに、否定はできんな...")
   0()
  EndIf()
  If(0,5,0)
   ShowMessageFace("iriasu_fc4",2,0,2,112)
   ShowMessage("\\n<イリアス>私も同じように考えています。")
   ShowMessage("魔王の手は、様々な国に伸びていると見るべきですね。")
   0()
  EndIf()
  ShowMessageFace("grandnoa_fc1",0,0,2,113)
  ShowMessage("\\n<グランドノア女王>あなた達には、極秘裏にメフィストの身辺を調べてほしいのです。")
  ShowMessage("彼女の活動拠点、魔導学園に潜入してもらえないでしょうか。")
  ShowMessageFace("ruka_fc1",0,0,2,114)
  ShowMessage("\\n<ルカ>魔導学園っていうと、確か――")
  ShowMessageFace("",0,0,2,115)
  ShowMessage("噂に聞くところによれば、魔導師の養成学校。")
  ShowMessage("この城から北に存在し、メフィストが校長を務めているとか。")
  ShowMessageFace("grandnoa_fc1",0,0,2,116)
  ShowMessage("\\n<グランドノア女王>その魔導学園に侵入し、証拠や情報を集めてほしいのです。")
  ShowMessage("この困難な任務は、あなた達にしかこなせないでしょう。")
  If(0,4,0)
   ShowMessageFace("alice_fc5",0,0,2,117)
   ShowMessage("\\n<アリス>...分かった。")
   ShowMessage("メフィストの行動、探る必要がありそうだ。")
   0()
  EndIf()
  If(0,5,0)
   ShowMessageFace("iriasu_fc4",2,0,2,118)
   ShowMessage("\\n<イリアス>...よろしい、承諾しましょう。")
   ShowMessage("メフィストの尻尾を掴み、魔王の陰謀を暴き出します。")
   0()
  EndIf()
  If(4,134,0)
   ShowMessageFace("chrom_fc2",0,0,2,119)
   ShowMessage("\\n<クロム>ふん、儂に任せよ！")
   0()
  EndIf()
  ShowMessageFace("grandnoa_fc1",0,0,2,120)
  ShowMessage("\\n<グランドノア女王>ご存じでしょうが、魔導学園はグランドノア城の北。")
  ShowMessage("ただし、潜入にはくれぐれも気をつけて下さい。")
  ShowMessageFace("grandnoa_fc1",0,0,2,121)
  ShowMessage("\\n<グランドノア女王>学園内には、メフィストの教え子達が大勢いるはずです。")
  ShowMessage("彼女達は、修行中とはいえ強力な魔導師ですから。")
  250(bytes(0x04,0x08,0x6f,0x3a,0x0c,0x52,0x50,0x47,0x3a,0x3a,0x53,0x45,0x08,0x3a,0x0a,0x40,0x6e,0x61,0x6d,0x65,0x49,0x22,0x0a,0x49,0x74,0x65,0x6d,0x31,0x06,0x3a,0x06,0x45,0x54,0x3a,0x0b,0x40,0x70,0x69,0x74,0x63,0x68,0x69,0x69,0x3a,0x0c,0x40,0x76,0x6f,0x6c,0x75,0x6d,0x65,0x69,0x55))
  ChangeInventory_Item(530,0,0,1)
  ShowMessageFace("grandnoa_fc1",0,0,2,122)
  ShowMessage("\\n<グランドノア女王>それでは、任せましたよ...")
  ShowMessage("その間、あなた達をエスタ調査隊に加える手続きを進めておきます。")
  If(0,4,0)
   ShowMessageFace("alice_fc5",2,0,2,123)
   ShowMessage("\\n<アリス>今度こそ、その約束を守ってもらうぞ。")
   ShowMessage("よし、魔導学園に乗り込むとしよう！")
   0()
  EndIf()
  If(0,5,0)
   ShowMessageFace("iriasu_fc4",0,0,2,124)
   ShowMessage("\\n<イリアス>その約定、次に違えれば地獄に送りますよ。")
   ShowMessage("それでは、魔導学園に乗り込むとしましょう！")
   0()
  EndIf()
  PictureClear(5)
  ShowMessageFace("",0,0,2,125)
  ShowMessage("魔王の陰謀が関わっているとなれば、黙ってはおけない。")
  ShowMessage("こうして僕達は、メフィストの牙城である魔導学園に向かう事になった――")
  241(bytes(0x04,0x08,0x6f,0x3a,0x0d,0x52,0x50,0x47,0x3a,0x3a,0x42,0x47,0x4d,0x08,0x3a,0x0a,0x40,0x6e,0x61,0x6d,0x65,0x49,0x22,0x0c,0x63,0x61,0x73,0x74,0x6c,0x65,0x33,0x06,0x3a,0x06,0x45,0x54,0x3a,0x0c,0x40,0x76,0x6f,0x6c,0x75,0x6d,0x65,0x69,0x69,0x3a,0x0b,0x40,0x70,0x69,0x74,0x63,0x68,0x69,0x69))
  EndEventProcessing()
  0()
 PAGE   2
  // condition: variable 1052 >= 6
  0()



EVENT   87
 PAGE   1
  // condition: variable 1052 >= 3
  0()
 PAGE   2
  // condition: variable 1052 >= 4
  0()
 PAGE   3
  // condition: variable 1052 >= 5
  0()
 PAGE   4
  // condition: switch 31 is ON
  0()



EVENT   88
 PAGE   1
  // condition: variable 1052 >= 3
  0()
 PAGE   2
  // condition: variable 1052 >= 4
  0()
 PAGE   3
  // condition: variable 1052 >= 5
  0()
 PAGE   4
  // condition: switch 31 is ON
  0()



EVENT   89
 PAGE   1
  // condition: variable 1052 >= 3
  0()
 PAGE   2
  // condition: variable 1052 >= 4
  0()
 PAGE   3
  // condition: variable 1052 >= 5
  0()
 PAGE   4
  // condition: switch 31 is ON
  0()
