﻿// EVENT 0627
Name "イベント：死神"

ChangeSwitch(73,73,0)
If(1,129,0,0,0)
 ShowMessageFace("sinigami_fc1",0,0,2,1)
 ShowMessage("【死神】")
 ShowMessage("珍しいところで会うものだ……")
 ShowMessage("せっかくだ、闇の技を伝授してやろう。")
 ShowMessageFace("sinigami_fc1",0,0,2,2)
 ShowMessage("【死神】")
 ShowMessage("ただし、「闇技」が使用できる種族でなければ意味はない。")
 ShowMessage("妖魔や吸血鬼、アポトーシスでない限り使用不能だぞ……")
 ShowChoices(strings("闇スキルを伝授してもらう","必要ない"),0)
 IfPlayerPicksChoice(0,"闇スキルを伝授してもらう")
  DefineLabel("選択")
  ShowMessageFace("",0,0,2,3)
  ShowMessage("誰が闇スキルを修得しますか？")
  355("names = party_members.collect{|m|m.name}")
  655("unlimited_choices(11, names)")
  655("actor = party_members[$game_variables[11]]")
  655("$game_variables[10] = actor ? actor.id : 0")
  If(1,10,0,0,0)
   ChangeSwitch(73,73,1)
   EndEventProcessing()
   0()
  EndIf()
  ShowMessageFace("",0,0,2,4)
  ShowMessage("どの闇スキルを修得しますか？")
  ShowChoices(strings("魔人炎舞","魔氷葬","魔雷塵"),0)
  IfPlayerPicksChoice(0,"魔人炎舞")
   If(12,"actor_skill_have?(v(10),1676)")
    ShowMessageFace("",0,0,2,5)
    ShowMessage("そのキャラは、すでに「魔人炎舞」を習得済みだ……")
    JumpToLabel("選択")
    0()
   EndIf()
   ChangeVariable(129,129,0,0,1)
   318(1,10,0,1676)
   250(bytes(0x04,0x08,0x6f,0x3a,0x0c,0x52,0x50,0x47,0x3a,0x3a,0x53,0x45,0x08,0x3a,0x0a,0x40,0x6e,0x61,0x6d,0x65,0x49,0x22,0x0a,0x49,0x74,0x65,0x6d,0x31,0x06,0x3a,0x06,0x45,0x54,0x3a,0x0b,0x40,0x70,0x69,0x74,0x63,0x68,0x69,0x69,0x3a,0x0c,0x40,0x76,0x6f,0x6c,0x75,0x6d,0x65,0x69,0x55))
   ShowMessageFace("",0,0,2,6)
   ShowMessage("\\I[177]\\C[1]魔人炎舞\\C[0]を修得した！")
   ChangeSwitch(73,73,1)
   EndEventProcessing()
   0()
  IfPlayerPicksChoice(1,"魔氷葬")
   If(12,"actor_skill_have?(v(10),1677)")
    ShowMessageFace("",0,0,2,7)
    ShowMessage("そのキャラは、すでに「魔氷葬」を習得済みだ……")
    JumpToLabel("選択")
    0()
   EndIf()
   ChangeVariable(129,129,0,0,1)
   318(1,10,0,1677)
   250(bytes(0x04,0x08,0x6f,0x3a,0x0c,0x52,0x50,0x47,0x3a,0x3a,0x53,0x45,0x08,0x3a,0x0a,0x40,0x6e,0x61,0x6d,0x65,0x49,0x22,0x0a,0x49,0x74,0x65,0x6d,0x31,0x06,0x3a,0x06,0x45,0x54,0x3a,0x0b,0x40,0x70,0x69,0x74,0x63,0x68,0x69,0x69,0x3a,0x0c,0x40,0x76,0x6f,0x6c,0x75,0x6d,0x65,0x69,0x55))
   ShowMessageFace("",0,0,2,8)
   ShowMessage("\\I[177]\\C[1]魔氷葬\\C[0]を修得した！")
   ChangeSwitch(73,73,1)
   EndEventProcessing()
   0()
  IfPlayerPicksChoice(2,"魔雷塵")
   If(12,"actor_skill_have?(v(10),1678)")
    ShowMessageFace("",0,0,2,9)
    ShowMessage("そのキャラは、すでに「魔雷塵」を習得済みだ……")
    JumpToLabel("選択")
    0()
   EndIf()
   ChangeVariable(129,129,0,0,1)
   318(1,10,0,1678)
   250(bytes(0x04,0x08,0x6f,0x3a,0x0c,0x52,0x50,0x47,0x3a,0x3a,0x53,0x45,0x08,0x3a,0x0a,0x40,0x6e,0x61,0x6d,0x65,0x49,0x22,0x0a,0x49,0x74,0x65,0x6d,0x31,0x06,0x3a,0x06,0x45,0x54,0x3a,0x0b,0x40,0x70,0x69,0x74,0x63,0x68,0x69,0x69,0x3a,0x0c,0x40,0x76,0x6f,0x6c,0x75,0x6d,0x65,0x69,0x55))
   ShowMessageFace("",0,0,2,10)
   ShowMessage("\\I[177]\\C[1]魔雷塵\\C[0]を修得した！")
   ChangeSwitch(73,73,1)
   EndEventProcessing()
   0()
  404()
  0()
 IfPlayerPicksChoice(1,"必要ない")
  ChangeSwitch(73,73,1)
  EndEventProcessing()
  0()
 404()
 0()
EndIf()
If(1,129,0,1,0)
 ShowMessageFace("sinigami_fc1",0,0,2,11)
 ShowMessage("【死神】")
 ShowMessage("伝授は終了だ。")
 ShowMessage("また次の機会を待て……")
 ChangeSwitch(73,73,1)
 EndEventProcessing()
 0()
EndIf()
0()
